0685001695004695975838937352753862266494	1
misdeed	1
half	178
upload	1
surgeon	3
1807763603462459278778465850656050780844	1
dependableness	1
combativeness	1
quickest	2
ochre	1
asserts	1
satan	5
twinkling	3
approved	7
imperfect	3
gloomy	14
tel	2
7911506170945268098478515286212317137789	1
unfeeling	3
surmounting	1
daring	6
deference	3
conceal	18
solid	13
wedded	1
pitchy	1
tex	3
switzerland	14
spreading	4
antigone	149
investment	4
competent	5
carriers	3
yourselves	7
hanninen	2
blubbery	1
3	271
scathing	1
left	239
temper	17
7	79
4314688429884126160426822488230977885564	1
eleven	5
imitator	1
protective	1
rejoice	2
sideways	2
frantic	5
begetting	1
telling	28
statistical	1
fearless	6
7550723319888417590521211390376609272658	1
1000	2
6145994638578378211017122446355845171941	1
suffice	6
destroyer	7
elect	21
result	38
humanities	4
umber	1
3447094856802790589419182996946772445626	1
unremitted	1
commission	7
crunching	1
4575633033655677737480864410996914182777	1
_	27
hand	260
hushed	5
resume	2
ordered	19
mainframes	2
riddling	2
c	130
collisions	3
tgz	1
g	15
spiral	1
artistic	1
k	5
mangling	1
mightiness	1
cdrom	1
o	334
ramble	2
hams	1
consisting	1
sale	5
s	2151
motioned	7
outdoors	1
enchantment	3
w	8
exciting	3
bubbling	1
fifth	9
0780211018810672234797257933065318771343	1
reeled	1
straining	2
violent	20
weltering	1
mapple	1
converting	4
murmured	5
lapping	2
unreasoning	1
barrenness	2
9583994708095478886350328112962689923111	1
faithful	7
reproduce	3
2454027590719621537570187067083731012246	1
til	1
besides	50
siglist	1
ascended	4
instil	2
pervade	1
tip	5
hardened	4
slavering	2
salutations	1
tensed	3
encircled	1
suspecting	1
adoration	1
grandchildren	6
deform	1
wistfully	1
beset	1
nestle	2
disguised	2
allured	2
gone	140
sang	4
owed	22
gorgeous	4
slaying	3
6092757679587375920701391502921651372085	1
supposed	34
advisedly	2
cia	2
scholars	7
plenteous	1
entangling	2
projecting	4
sank	34
1903039732725461782313636337592762265630	1
scanners	1
2450166815341213505278578539332606110249	1
applied	17
elasticity	2
harp	1
moaning	1
hart	60
representation	1
lent	1
expanded	3
tenanted	1
shivering	3
provider	18
3351954683833534980150326935979816746323	1
romantic	6
4200014574760819302212066024330096412704	1
hard	108
lend	8
enhancing	1
6428714964129290560130053913469569829490	1
1709615504933383904526124043955174491368	1
approval	2
bloke	1
room	107
7078756311761074642883559391598542167311	1
translation	5
realizes	1
outlook	2
romance	5
3135247099699336256810236039226404358878	1
pupils	1
hinting	1
severally	1
assiduously	2
fastening	1
3612601090841959021558211181667741384396	1
roundly	1
chilly	1
incensed	2
8822073792921409548717956947854414951731	1
experiment	12
fellowmen	1
manuscripts	2
etesian	1
4985657055608784211964039972344556458607	1
gory	4
conceit	1
enlisting	1
caressing	1
timid	12
befeathered	1
gore	26
5895752735214124451495424629722585101207	1
rains	2
despaired	3
0794880331410992499071132416945042413912	1
cooperating	1
0447958316931533832382377876344426323456	1
schools	13
larboard	4
presses	4
7196235856312618387156774118738527722922	1
binary	45
malevolent	2
orders	24
2044102134790034598411927024921557026873	1
homage	2
faxes	3
deferred	2
wreathes	1
civilities	1
63121	1
olympus	2
relaying	1
foraging	1
inexperience	2
protection	29
respectively	3
grated	2
solemnly	13
stagger	5
pint	1
matter	99
aborigines	1
trusty	2
footsteps	6
rosy	5
irons	1
maidens	16
unadept	1
casting	6
redundancy	1
slinking	2
succession	3
avail	15
5014806723297965223048849375116608497611	1
4120	2
additions	21
drugs	3
housemaid	1
revels	2
spirit	80
ailed	2
wishing	8
cheap	6
cheat	4
incan	1
firmament	1
observances	1
acadlist	12
thanksgiving	4
grundner	1
overly	2
witch	2
wreaked	1
rose	93
lamplighted	1
captives	3
resurrect	1
coo	1
criticizing	1
traveler	6
cos	1
tortured	6
pleas	3
noonan	3
cow	12
reverberate	2
lad	5
gown	2
crawl	7
abject	5
grudges	1
automation	1
academic	14
west	45
employer	3
pitcher	10
lap	11
4518361856989088721789764694721246807900	1
revere	2
representative	6
traffic	13
longitude	8
lax	2
including	188
comparison	4
timed	1
initials	4
devising	5
unmingled	3
incontrovertibly	1
pernicious	2
9046321367101161928217111502828016044880	1
corrects	2
successive	3
institutions	8
anew	8
markets	4
201	4
translates	1
0103727722771087056491296612106149407278	1
5455628707299684073829372186238317665247	1
try	90
taunts	3
lattices	1
rudeness	1
specialized	7
became	127
unenforceability	18
piercing	8
impenitent	1
toughened	1
artificially	1
scenery	5
chattel	2
clammy	3
wound	15
212	1
footed	8
4409837060836364576570818016642850442582	1
equipage	1
exhorted	1
216	4
muscle	3
detrimental	1
daubed	1
exhibition	4
printers	6
twofold	1
improbability	1
solon	1
satiate	1
9377602529543130188938184010247010134929	1
gander	1
pillow	2
impatience	11
byword	1
grapple	2
1844549795639984483680785199708820140776	1
maintenance	4
rowe	1
cso	9
7192176047942740477402533143054513677103	1
witted	3
prez	1
splits	1
gotten	7
1952907939613762110723849429061635760459	1
2338334530105533929637308039738230604714	1
tetchy	1
expedition	18
led	72
freshness	2
uncertain	8
ladyland	1
unfailing	6
unimportant	1
beautiful	75
tut	5
mountain	34
docs	2
refrain	7
appreciative	2
let	305
accuses	1
press	27
7615632181084289820770697413870705326611	1
3836281246291181177609494118801059463366	1
dishonors	1
dough	1
snatching	1
undue	3
forsook	2
1594060878788638511089680883165505046309	1
pace	8
concealment	3
exclaim	1
22k	1
deputation	1
polity	1
shrank	3
patchwork	1
rendered	25
_that_	1
249	1
whirls	1
wetted	2
bravado	2
monitors	2
polite	6
wasting	2
ctrl	3
stave	1
toronto	3
collapsed	1
document	29
jurisdiction	2
dollars	24
manly	6
prayed	17
availability	3
proving	2
weighed	10
starve	4
apian	1
battery	2
halos	1
twould	5
256	3
porker	1
2211591485059387706790687013510298622075	1
builder	1
vorse	1
curios	1
distribute	128
attach	1
ankle	1
creation	42
ringer	1
uninhabited	3
legislation	4
dodge	2
ingredient	1
emeralds	1
languages	8
0996720131237303297076789887400993173096	1
perplexed	9
antlers	2
brotherly	2
attired	2
refuses	3
withdrawal	1
linefeeds	1
mournfully	2
emphatically	3
charnel	2
admitting	3
watch	59
1929	1
2585985991238439935755732850286131559703	1
quit	46
1224268139228721340616948820295068316545	1
insubstantial	1
distained	1
_doing_	1
israelites	3
lid	1
importantly	1
reflecting	2
apparel	3
smell	7
participant	1
rodents	1
whetted	1
glare	3
lip	5
punishing	3
compile	2
smelt	1
lit	11
unguarded	3
dogs	30
shoot	14
starts	5
homer	1
budget	1
sleuth	1
doff	1
ultimate	4
firearms	1
dunce	2
blooded	1
9310531444716688351829205143436092924931	1
4273726937288386902125284843370917479603	1
dugouts	2
tamed	4
ancestral	2
0447571577114108095805814120895605947166	1
exposing	1
involved	13
0566883769642298255011950658378431252321	1
0002407915892646028490894922299966167437	1
page	46
penitence	4
cordon	1
full	382
thumbs	1
memory	44
cards	3
bashan	1
boggling	1
idols	1
bountifully	1
cared	8
blinding	1
starry	2
lifting	4
construed	2
stare	5
attends	1
scudding	1
1081400423114185258032932673963245969140	1
inculcating	1
wreckage	1
8037924778355400181174529577473397140123	1
hours	112
unjust	13
supped	1
4053541300504824049966469785580026289318	1
center	23
upraised	4
discordant	1
meditatively	1
offals	1
manage	12
brutalizing	1
ncsa	10
wrung	4
1961	1
comradeship	3
spared	8
replete	3
incur	4
tentatively	1
6144238100112755828623259628572648121538	1
attitudes	2
3011736805218743265426063700710595364425	1
adrastus	1
listless	2
contemplating	1
baited	1
scapegoat	2
watchword	1
1976	1
measures	14
1972	1
7907192546246309055749298781661271916548	1
premise	1
castaly	1
jackals	1
unselfish	2
golden	16
mids	2
imagines	1
fountains	5
debilitated	1
attain	7
sedulously	1
gravesend	1
cowboy	1
warmth	13
taxable	1
boojums	1
roads	13
hostage	1
creative	2
1987	1
judicial	3
2130811891350027965491034480615017040726	1
provide	161
1203784750417081752273735270989343717167	1
leavings	1
telescopes	1
famished	2
listowner	2
visitations	1
reckoned	14
consultation	7
recounted	1
arcturus	1
circling	8
muffle	2
pant	3
masterful	1
clarified	1
computed	1
enterprise	18
7528203658186991119483658661027583758633	1
teaching	12
dome	7
9000	1
1998	1
competence	1
lov	3
aided	6
1994	3
scuppers	1
prop	1
comest	3
indulging	2
mildly	4
0641379268854135525232757204573294772157	1
fuss	4
meant	45
wealth	34
funding	4
wallet	2
prod	1
tutors	7
doll	1
4991028197595639557117530118234803041810	1
gulfs	1
8367412135721830146848071241856625742852	1
adversary	8
clicked	1
acrobats	1
eternal	23
whitehouse	8
aught	26
squatted	5
absurdity	2
walled	8
idleness	4
ejournl2	1
comers	3
prevalent	1
oasis	1
incompatibilities	1
dodged	1
newsgroups	16
alliance	6
compact	3
welladay	1
distinguishing	4
2555141291785030324712634180765251878029	1
recognizing	3
husband	44
dah	11
cyclone	3
daresay	1
daughters	30
bloom	5
dat	65
4852528877442891851104093746333590660233	1
checked	6
affair	5
3226819247351364635675861121295307464477	1
tombless	2
unvarying	1
gopher	44
obtain	72
fixing	5
coasts	1
repute	3
nimble	2
island	47
minutes	52
walton	8
theological	1
water	128
9250461950136658543663271254963990854914	1
puzzling	1
congratulate	1
nimbly	1
meekness	1
perceived	31
5468626788523300449677955807616618018336	1
repairing	1
diffidence	2
residents	2
creates	5
whippings	2
9580591237612512030109838678411957258877	1
apples	1
infusing	1
antagonists	2
tent	26
critical	29
tabernacle	1
part	299
boards	9
9664362247236448986489768571001736435473	1
sakes	2
thickened	1
envision	1
radiant	4
feminized	1
inured	4
exceedingly	6
tend	9
declining	3
oops	1
eradicating	1
relief	33
fooled	1
psychic	1
8142763910519234685081979001796519907050	1
preposterous	2
sisterhoods	1
romanticized	1
orientalists	1
cursing	5
villages	10
lavenza	4
absolutism	2
02159	1
wheeling	2
burdened	1
josephine	1
threads	2
concentration	2
colleague	6
commiserate	1
overtook	1
third	31
confession	6
chene	1
meridian	1
entertainer	1
gratitude	19
bursted	1
behaved	3
corded	2
3005522324221858619139479518422013155331	1
annexation	1
sketched	4
del	1
crabs	3
asylum	8
attaching	1
infernal	11
doth	14
inhospitality	1
2089091045837273862273007815666689142507	1
gagged	1
record	17
lapdog	6
unrolled	2
dirce	2
poseidon	7
4258698294695930801915298721172556347546	1
announcement	7
crisp	1
smiley	4
narratives	1
banks	17
carefully	39
grate	4
milk	22
bill	33
lovedst	1
whipped	25
meddle	1
cadmus	7
eats	1
unconquered	1
census	1
bodied	2
oceans	2
subdirectory	4
willful	1
exalts	1
average	5
wherewith	6
obstructions	1
equivalents	1
roncesvalles	1
oatmeal	1
clsi	1
grasp	25
paynims	2
handing	3
androcles	10
5853629387379236992883704790048472224037	1
rigid	4
6144369564690909518788574398821730583884	1
brad	2
mine	120
4498341419197991817990986463158324602151	1
reverence	19
forbear	11
medieval	1
0206070038212628417236796273071914050080	1
5955277349071783793421637012050054513263	1
shelled	1
acuteness	5
lockers	4
outrun	1
elude	3
stealing	9
amphitrite	1
touches	3
sedition	1
jepson	4
dilatoriness	1
borrow	3
maladie	1
desert	56
did	555
wretches	1
battling	4
conceiving	1
impel	2
displaced	1
dip	2
9639916559369593557640005236360445141148	1
believing	7
fears	33
brings	17
strewing	1
lookout	4
adding	4
evils	12
3798	1
debasing	2
disgustedly	1
brows	5
parcel	2
renewing	2
whoop	2
suiting	1
puzzles	2
0199373597603704672457378809679398944937	1
traversing	1
varied	7
bangs	1
louisiana	2
straw	18
lisle	1
brat	1
hideous	63
comely	1
feast	14
armor	4
braided	2
chilled	3
paradise	9
sufficeth	1
gratefully	22
trustees	1
deserving	11
5718896253576322583427576334842101666810	1
forked	2
colours	2
occasion	35
bred	11
virtual	6
dispensed	2
vegetate	1
compatriots	1
requesting	3
back	357
ismene	78
incestuously	1
plucking	1
paley	4
disgusting	4
sways	2
applaud	2
prince	19
poetry	4
whereever	1
4310227061375913680565188613134583079907	1
custom	21
abode	7
monogamous	2
considerations	2
travels	11
insurgent	1
proselyte	1
blackened	1
beach	27
inherit	1
universe	1
overwhelming	8
unt	2
individuality	5
mire	1
engendered	1
articles	27
pays	7
crocodiles	2
brothers	10
relic	1
invincible	7
convert	23
attempt	48
relish	4
arcadian	1
0370229058048305273188495999415660653731	1
impaired	1
stalk	1
supplies	4
testified	1
blessedness	1
diffusing	1
cocksure	1
lock	9
mimic	1
proudly	8
weakening	1
briers	1
exceeded	4
bleeds	1
photocopying	1
appreciation	5
ailments	1
acadwhol	1
being	299
oozy	1
2651870871461390952145498799230043177950	1
curry	1
removing	2
menace	8
hoping	9
queenly	1
causation	1
served	17
warned	14
legitimate	4
maniac	2
littleness	1
readnews	1
ooze	2
silenced	1
imperious	2
don	266
familiarity	3
upset	5
sholy	2
bags	1
thoroughfares	1
curve	2
cloying	1
advisability	1
glances	5
grievances	2
stamp	3
pours	1
etexts	15
skip	6
cleanse	1
scattered	33
mac	2
known	100
oracles	12
brit	2
mak	1
condemnation	4
wouldn	52
stifled	1
2675481993546118143913367579700141255870	1
twenty	49
characterized	2
maw	6
airships	1
forward	67
myths	2
bless	15
kincaid	104
8023610477431153307851599029777714996102	1
computation	1
300	6
0606407754779439671383653877377610828300	1
obscured	3
vividly	2
succor	6
5331904743954740664015260871940915743955	1
trustworthy	2
louisa	1
brawny	2
discreet	1
6634838358967034091155130878201387234947	1
44106	2
usa	4
mail	180
sprung	12
use	469
mouthpiece	1
9151524510096986573825654899585216747260	1
recognition	5
internetaccessible	1
6556048763399988478426451731890365879756	1
lunge	3
bumped	1
wright	4
convent	1
315	5
continuous	4
negotiation	1
liker	1
grain	6
terraces	1
credit	44
maid	27
phosphorus	1
combine	2
brook	7
carolina	4
daybreak	3
felicitous	1
caroline	5
numa	13
includes	36
dry	33
pressure	11
apprehensions	4
poisoned	6
weights	1
picking	4
fencer	1
perfectionate	1
staid	2
fixedly	1
322	2
millionaire	1
dispose	2
rejoiced	4
thunderous	1
vacuously	1
befits	2
thriving	1
handsome	10
senseless	5
6370897340146753465517470747096935814912	1
libsoft	1
augury	3
ball	6
jollier	1
333	1
cheapest	3
bowstrung	1
bald	7
threats	16
0018747301919731088115751677700507143201	1
wicked	22
lullaby	1
surges	1
7918402179762665648458026159140717347700	1
1660998836479175633176725856523591069520	1
constable	4
barley	1
constituting	1
humpty	1
structure	10
surveyed	1
protestations	2
tyrannical	2
wretchedst	1
masculine	8
intensity	2
fortify	4
reprinted	2
wakes	1
bytes	2
opac	2
waking	4
biscuit	1
1709147607437136893319469090981904501290	1
breast	34
devoid	1
thumper	1
toddlers	1
03	3
inform	3
interpreting	1
wretchedly	1
sized	3
uwm	4
2870912311383472485146035661382188014840	1
granted	28
crash	4
goddesses	6
schoolbook	1
womanly	3
dejection	2
oppressed	19
dvi	3
eluded	4
sinuously	1
released	10
salutary	1
disappearing	4
10	31
disowned	3
injunction	2
14	11
koran	2
singing	13
outen	3
18	23
outer	8
willowy	1
received	155
sufferable	1
collaborating	2
athens	19
execute	7
1124982614345594089618135092268576114746	1
quality	17
jingo	1
2617176761915542925704384322399184822617	1
gunnel	4
conveys	1
afresh	3
unique	4
regained	2
8707777519329994213727721125884360871583	1
hankering	2
consistently	2
boost	1
sober	8
6666748274269259686864337319165487177501	1
jings	2
blundered	1
21	8
ogre	1
transporting	2
shared	30
helpline	1
2874666198891534664244887911940711423940	1
25	19
worlds	9
examine	14
tormentors	1
allender	3
29	3
vigor	4
association	18
cute	3
3492748919713308782295112374663263563532	1
lieved	1
remember	74
fell	120
augment	2
listings	3
9280549839169261068975151083963132117128	1
motherliness	3
greece	7
butterfly	2
purification	1
frightening	1
examined	18
impudently	1
booty	2
holes	1
32	5
acquit	2
unceasing	2
atrocity	1
middle	68
36	2
yanking	1
reprisals	1
sticker	1
many	405
exploiting	1
thoughtest	1
puissant	1
appear	62
stag	9
loll	1
6423299569356971662137827361388995305157	1
definitely	5
monotonous	5
guardedly	2
increasing	25
mane	3
progress	48
3416534893431149175314953530067419744979	1
respected	6
experts	4
43	3
seeks	9
diane	1
barb	1
47	1
militia	3
odious	7
forced	34
vigil	2
navigator	1
project	1631
trepidation	1
arena	2
butting	2
behooves	2
hinterland	2
whisky	5
confederates	3
barn	10
uniformly	2
schneider	30
kennel	1
tobacco	3
50	33
diana	1
naples	1
54	2
riddles	2
surprise	40
abound	2
58	1
maps	9
adapts	1
dropping	8
gazed	17
eumenides	1
crank	1
felt	218
invited	8
bears	8
look	230
8139559900673764829224437528718462457803	1
companionway	1
dense	14
nausea	4
monds	3
scapes	1
gopherspace	3
sucked	1
surpassing	5
8408570397815199814882239005994891194647	1
roadway	3
61	5
proposals	3
0383721577268311707345522501941217015413	1
65	1
milking	1
wired	1
alloy	1
69	1
consciously	1
fnal	1
needed	33
stooping	2
chummy	1
beast	62
muzzle	3
foully	1
18th	3
speed	69
precipitating	1
gesture	6
5998990248299853826140395410812427393530	1
inquisitiveness	1
3777247276797635865806019396287718060679	1
berth	5
72	1
performances	20
bath	6
entertains	1
0982514244526251595251487527380563315096	1
76	2
dwells	1
1047199102756235864534174863172655639132	1
5692614510885781224913961691253420291813	1
stew	1
steamer	35
overlook	4
disclosing	1
mary	9
swais	1
4161931431267153558715486674789939868551	1
graceless	1
foreseen	1
eagerly	23
lodged	1
humps	1
attic	1
5493865404638285967422163182015301396297	1
richer	5
9397574406649127605188781242336831254672	1
83	1
unprotected	3
compassed	2
ireland	10
87	2
mussulman	1
95616	1
indefeasible	1
achievement	3
loth	2
claimed	9
ungainly	4
tradesmen	2
3477500842141005745773428029854040495555	1
whole	207
mom	2
revolution	23
agreeingly	1
spotted	1
mopped	1
rigby	2
maud	1
loss	30
impediments	1
relate	12
humor	7
7523017450887848856457412750033533034161	1
90	43
richly	7
maul	2
94	5
obstacle	3
98	5
mats	1
van	9
eyeing	4
biology	1
heidelburgh	1
worm	5
knuckled	1
brooded	3
photographed	1
6426120042566286021578011404678796623392	1
mutinied	1
providence	8
7429591180747453419551420351726184200845	1
masons	1
patrician	1
registration	1
humiliating	1
wore	23
expostulation	1
theory	29
guiltlessness	1
deprecate	2
9951196514095426150266151476512208202458	1
republican	3
enjoy	30
coppice	1
slave	209
unwise	4
believes	8
horsetail	1
overhangs	2
beans	3
federal	49
2488594873689907351216611839787734271587	1
6654111537358491279025465436902086941987	1
nicknames	1
solitude	22
persecution	1
simplest	5
0169901664189038843548375648056012628830	1
swallow	16
pouch	1
9884854560549613002157761152558133961840	1
3116083027511943848238615528524650103294	1
sperm	2
tremendously	1
haste	18
sends	3
altogether	14
devout	3
dallied	1
regulations	1
hasty	3
upsetting	1
defender	3
hospitals	3
avarice	1
resuscitating	1
prepared	34
compunction	1
ornithologers	1
butcher	13
4261652230866973145114120356599169341030	1
rigorously	1
freedoms	1
barbarians	1
maze	2
twos	1
cernvax	1
2500	1
desolate	19
olive	6
budding	1
dirge	3
html	10
exaggerate	1
alcts	2
cutesy	1
1540147795316746172620872730482063465246	1
spasms	1
ver	2
pebbles	1
mysteries	7
failed	37
sounding	1
5972866594511364413703313936721185695539	1
estimation	1
6653636603700758810044502657349351277074	1
shipped	3
tombs	1
provision	22
unreliable	1
uncompress	3
tendons	2
drance	1
minims	1
acadvm1	1
9865656376722755704495258739871812593441	1
strung	3
4660616669804218267724560530660773899624	1
0378716816618909390024386203861000136219	1
winter	27
youngsters	2
transacted	1
mus	2
platform	3
sternly	3
berated	1
prescribed	3
talks	5
rivalled	1
notifies	18
balked	1
unmannerly	1
riots	1
fairness	1
encompassing	1
opaque	1
gaiters	1
5560395905381507241627615047252487759578	1
5916009164171017560540981430190644437990	1
telegram	2
humid	1
selfishness	8
8830579306577033314985100683571356243418	1
whispered	29
command	86
jack	15
frederick	42
0346841574431277398110441867620329544754	1
compulsory	3
swart	1
watering	2
clubbed	1
temple	12
0135205615103489821873770245063583314243	1
veronica	16
landscape	4
perfection	7
exception	9
communist	16
prevailing	2
floods	2
salmydessus	1
saved	24
desperate	15
staying	4
8818865149169302451512835579818112344900	1
awful	45
2543536823186182982713182489884498260285	1
opus	1
urge	13
chimera	1
emergencies	1
8626290036145602625334863284986816039463	1
absent	14
educate	5
subdirectories	3
victims	10
23rd	1
viz	1
progenitor	1
leaps	2
humbler	1
community	23
insects	3
forelock	1
guess	25
faxing	1
levers	1
waned	1
aboard	44
returns	30
detail	15
5391423778244330274670828200872260205341	1
damps	2
consented	12
boston	3
forest	51
elevates	2
debated	2
worded	2
resignation	4
matrix	4
jeers	1
eloquent	7
symphony	1
sleep	64
8430747132676828309720314904986888445618	1
hungry	31
swimming	4
prohibition	20
7441093521532790681603205421596795906641	1
stump	4
proffered	2
sleet	1
expatiated	1
perceptive	2
9128617061336487318319756081256946008940	1
cultivated	10
muhammadan	1
flavour	2
evenings	2
strata	2
loops	3
mechanics	4
1432140045051394142899835057603879934335	1
dreary	5
hopping	2
neck	49
onset	1
baling	1
scooped	3
intrusion	2
immoderate	1
vainly	10
florins	1
rounds	3
jocasta	56
evidence	27
3268959900548847534241605866898200674831	1
bravos	1
loudness	1
repast	3
eavesdroppers	1
stowing	3
ohio	4
7572233435788863537030535008357679180120	1
couldn	124
8661504474787261642499766714813830539479	1
narrate	2
spring	33
chases	1
generated	3
leave	107
ebooks	167
predestined	3
1045686070209901260681870498417807917392	1
2255216359325125768382924978090431102048	1
cottage	52
florist	1
eulogy	1
discrimination	4
cakes	5
serpent	19
kindle	3
whaler	2
personated	1
bourgeois	100
6756610358893134838005127364111573045992	1
minister	6
peripherals	1
herodotus	1
nightgown	1
journeyed	1
3870648585886462216114103435703428788629	1
matlock	3
shrew	1
typewriter	2
obtaining	42
doest	3
crucify	1
kindly	26
sunless	1
traditions	6
1535633471775664392125733993165330324425	1
vexes	1
footway	1
crawling	7
damon	1
8398144845855803277997327929143195789110	1
3671800538456378551291718484178415947974	1
motorboat	3
10th	1
enring	1
tutored	1
vt100	3
wands	1
matriarchate	1
landmarks	1
tortuous	2
encumbrance	1
1601748519818854608600365976067432333464	1
praire	1
4818176786777215279827025011719581657760	1
peopled	4
stretch	10
julus	1
unconcilliatory	1
2199992701148071712847770301254994886841	1
grandams	1
end	240
lines	29
duodecimo	1
abridging	1
nauseating	1
drifting	9
flounder	2
6124402686833955587060775816995439846956	1
scud	1
agencies	1
grovelling	1
special	100
horizon	9
alleviated	1
berkeley	8
arises	2
betray	10
progressive	5
pronounce	3
inconsistency	2
attacked	8
slew	14
physiological	2
referred	2
8638174959428489201352009095100786494186	1
0900074740659456503153750441779821923063	1
winking	1
copyright	286
occupation	8
called	184
slacken	1
told	207
adown	1
release	42
3793990752166069238053369887956513728559	1
toll	4
enthusiasts	1
moral	25
andorra	1
responding	1
lieve	2
meetinghouse	1
herman	4
6358748473501590215522120388281168021413	1
judge	43
defile	1
similar	36
contradict	1
tenderly	6
vales	1
parrots	1
specify	1
longings	2
allegiance	8
harassed	1
wanna	1
comported	1
clocks	3
drives	4
charming	4
7859415796210437878707215481409172516361	1
chronometers	1
crossed	21
gallows	5
weapons	19
ethiop	1
carved	3
hatched	2
erstwhile	1
ravages	2
nell	1
against	222
creators	2
affright	3
anwsers	1
shaggy	9
townsfolk	2
5611229018128471013791721512466742850006	1
54th	1
8064990845917962030569156680618082658692	1
doers	2
remind	8
manufacturer	5
crude	4
vacuum	1
pauper	1
holders	4
1159676472507566836772605235293977301634	1
cataclysm	1
share	72
peered	2
antarctic	1
obstinate	5
congratulated	2
jokin	2
thoroughly	11
tome	1
dispel	2
2702792109593543055579732660554677963552	1
minuteness	1
throbbing	5
hatchet	1
425	2
anchor	11
8659280951315050126029195625760329325128	1
betide	2
4461779564375239174292850398702258373406	1
melts	1
ignominious	1
esq	2
mexican	3
naked	33
1296447890613200063096560747882082122140	1
decorated	1
homesick	3
perception	5
pager	1
9553889761398640016563990693460067078050	1
9334668561083789808830313571333157729435	1
beguiled	1
conceptions	1
keynote	1
catching	6
took	235
settings	8
recommencing	1
subjected	13
frolicsome	1
othello	1
familiarized	1
surviving	5
anticipatory	1
domains	1
1505900806952540610628536408293276621931	1
godlike	5
revolts	1
plutarch	3
driving	11
443	3
continuance	2
scales	2
bestowed	14
paddles	12
7630836137289498678842851139853615593352	1
6258392376391717855799468922496750179251	1
thebans	9
backups	2
torn	19
endow	1
spied	1
4948000671943714240581053275177219524743	1
8986017946587214444951988015508040425064	1
1051207313846648717547518382979990189317	1
influenced	4
befallen	10
ferocity	5
raced	7
trick	6
dreamt	1
around	168
5966536300491887695236775791473191842258	1
protraction	1
frantically	5
joyous	10
running	55
4826375270813531055708180496424985846461	1
righteousness	1
overflowed	3
secheron	1
whispers	4
boils	2
fieriest	1
commensurate	2
3762552587574553031129919143411094130882	1
unprofitable	2
stimulation	1
evenually	1
frontier	6
margrave	3
heatless	1
egypt	10
manifest	1
rates	3
decides	1
6302187600258139957199236013453742297589	1
drawer	11
prelude	4
sauntered	1
chasms	2
pencil	3
prostration	1
workable	1
eleusinian	1
engage	7
glowered	1
queens	1
2490933606999809477625379297359703775906	1
strategy	1
forms	27
summon	10
overstepped	1
5730076893989007007392469746181285576466	1
grovel	1
3165140662291712234293758061439934849143	1
gigabytes	1
establishing	5
livest	2
vineyards	3
stevenson	4
blurtest	2
professional	10
annihilate	1
ruminated	1
elective	2
untended	1
0825756785507020555105572381878574650371	1
lanes	1
represented	7
zealand	2
remorse	19
dance	22
beneficence	1
hurdles	1
joyful	2
6122	1
verifying	1
imminent	4
hierarchies	1
dining	7
forgiveness	1
voices	23
uninterrupted	5
lazily	3
4869916077111131569725392943756732215758	1
languidly	1
toss	4
6041489302535678633503526382069821487003	1
argues	1
dumpty	1
waved	8
mystery	16
9934804445549850597823297898617029498418	1
immoral	1
hovels	1
graduated	3
flask	3
prouder	1
springfield	2
fainter	1
saplings	1
palpably	3
mattress	1
automatically	12
hues	1
4831476678183644656510024467827445695591	1
schoolmasters	1
literal	3
becomingly	1
protectors	14
gray	9
indolent	2
amused	2
tropic	2
ernest	13
beverage	1
colts	1
soilure	1
indemnify	20
stillness	5
backbone	6
expectations	4
magician	32
repentant	1
departs	1
jaws	19
scaling	4
discovering	8
nightingales	2
cataract	3
bandwidth	3
silly	5
newcomers	1
black	144
disregarding	2
bliss	7
knitted	1
arouse	4
palpable	3
plantations	1
persuade	13
6383913916307609763649902889305880534066	1
such	634
tuckered	5
exacting	1
recovered	17
splashing	3
unitarian	1
absolute	21
overproduction	1
sloped	4
describe	34
fetched	13
campuses	1
charts	2
penalties	1
florida	5
navigable	2
deject	1
solved	5
remains	31
fatuous	1
1866081937489686999613014869246944824207	1
recapture	4
defiled	2
features	24
fledglings	1
radicalism	1
sinister	12
1542709143010161515013086522842238721618	1
stripe	1
huge	33
inarticulate	3
_honest_	1
hooking	3
gourd	4
greenish	1
suez	1
attractive	7
cater	1
might	454
astir	1
aptest	1
imprecation	1
boats	10
engineering	4
duplicate	1
stubbornest	1
jostled	1
downloaded	3
enticements	2
expressions	2
unbridled	3
2960508203415938806006561845735081804032	1
improving	2
engrossing	1
romantically	1
trumpet	1
leads	4
orbits	1
_everything_	1
swears	2
aloud	15
fields	22
0634360830737628161398410739241003719675	1
next	137
aspires	2
modems	4
nod	5
0574450289224688628533654221381572213116	1
color	29
import	9
string	9
peacherinos	1
harryet	1
nearly	110
fraternizing	1
encyclopedias	1
intrude	1
simplicity	3
admittedly	1
summit	10
not	2856
doubtless	33
impose	3
manacled	2
heralds	1
faintly	4
news	75
rack	2
election	2
green	25
conquer	5
locking	3
fluently	1
sledges	1
3215552420465941008141835112017419685343	1
9612053532174352764937901877252263626883	1
6770641995391119488812406598216857871313	1
way	488
grey	12
4186612891526444692622288436629946273246	1
glorying	1
gist	1
classed	1
risk	14
leafy	3
flame	11
razors	2
ymodem	1
tarring	1
haired	4
sorcerer	1
criteria	1
foes	13
pleases	3
exiled	1
fan	9
doubly	7
crush	5
conflagration	2
6532808341034178527248987905091993236927	1
7889980146236901358037533062461485760749	1
far	265
behoof	1
catch	24
bandersnatch	3
6886274396802188558151536753121837411997	1
shafts	2
lives	49
italians	1
depends	24
double	29
probability	7
4998920868058257492796104841984443634632	1
dissolution	5
instituted	1
physiology	4
bewildered	6
stations	2
contention	1
waistation	2
davis	2
4362788192837402531856685450408939294010	1
consequential	22
classifications	1
ships	19
determined	55
3500159704041919956050970536469647314244	1
pedantry	2
prevail	15
hoods	2
pythian	4
lambikin	1
elated	2
implicit	1
moderated	1
scrunched	1
purity	1
direct	60
flags	3
futile	6
2245368937187145156739473344044728045095	1
defames	1
_forced_	1
enabled	8
gain	43
slanted	1
hardship	3
gloating	2
wee	6
survives	1
pines	3
immaterial	1
deign	2
grandfatherly	1
castles	6
shire	1
1187831154087577756002066412456229323911	1
0846558989823492193152052574783638552662	1
2628532947105560267041338450050782739064	1
preprints	1
eyelids	1
fawned	1
rags	3
bourne	1
philoprogenitiveness	2
whew	2
proceeded	34
incredulous	5
organization	12
robesons	1
stockings	3
heads	26
indebted	3
widows	2
grim	14
pursuing	12
arrest	10
despised	5
lackest	1
gunzip	1
suspiciousest	1
cycles	2
nur	2
discontent	3
constantly	18
retirement	1
7475257438981587050407019682151012188260	1
suns	1
sawyer	40
fer	3
3055338409428899189191611862495805600735	1
threaten	7
bourgeoisie	91
descried	1
theoretically	2
omitting	1
pinky	1
enrich	2
irradiated	1
spearmen	3
awoke	22
sinful	2
strain	12
sweeter	3
hunt	16
orient	1
nearer	49
pertaining	2
sunk	14
opened	61
0180134351593044285384894182567887072123	1
sung	6
pleasing	3
2636	3
keen	29
outside	93
nslookup	2
effect	47
explaining	12
cruise	8
topic	17
winder	2
option	4
erection	1
wondrous	11
manifesting	1
unexpected	10
crucial	3
imprisonment	7
volley	2
newby	18
dehumanizing	2
swings	1
raked	1
relaxed	7
excommunication	1
alone	185
candidate	1
damned	5
8943903971771951806990869986066365832322	1
hottest	4
parallel	3
muffled	4
dies	6
9460352913325942794904337299085731580290	1
wagged	1
didn	109
breach	39
1172721155519486685080036853228183152196	1
mocked	1
gale	11
electric	2
1330	1
loping	1
shine	9
2689824772221098521897581408797634861467	1
jasper	1
recommended	7
surpass	2
quailed	2
critics	1
aloof	3
hytelnet	14
various	86
deformity	13
approached	50
7133544720981178461451077872399140606290	1
shiny	4
visit	74
user	93
unbound	1
diminishing	2
camels	24
3283621019282293724359028300388444570138	1
thankless	2
perpendicularly	1
appointing	1
decencies	1
fir	2
fond	21
aversion	3
rankled	1
7307048950936235550769837881926357141779	1
apprehending	1
excites	1
trembled	18
negroes	2
ablaze	1
outlet	3
mkdir	1
preparatory	1
waggon	1
investigated	2
illusive	1
promoting	36
grow	26
ad	1
gang	2
metaphorical	1
shrink	2
copernicus	1
ah	70
supremacy	10
furnishes	1
locality	1
textile	1
al	8
unsullied	1
former	33
3313061095102941408655740710746404019373	1
ap	1
panic	5
eventful	1
at	2428
grog	1
yonder	19
corinth	5
turning	36
submissions	1
foretold	2
0037356252794495158284188294787610852639	1
hurl	2
apocryphal	1
intermediate	2
3016795136710475104696690012177771280655	1
looking	98
hurt	20
ba	3
inscribe	1
6293375915178392341303110543328703526599	1
drawled	2
endlessly	1
be	2374
fibres	1
rapt	1
cherished	4
bi	5
commodities	3
verdure	7
0123409338799977609743361575091099258546	1
customize	1
chartists	2
profusion	2
anesthesia	3
whoe	4
communications	27
panes	2
bu	1
by	2493
popularity	2
whom	234
cheval	2
genre	1
contestant	1
willy	1
niggers	6
tumbled	2
disclaimer	56
crystals	1
unrived	1
keeping	61
galleys	1
0031423973536892843529495809943446541431	1
infuriate	1
mislikes	1
binhexed	2
sexless	3
lasted	3
cr	5
repulsion	1
fly	39
sprintnet	9
breaths	1
freely	90
bondman	4
observers	1
dc	1
0949298475227462534564256702254695786484	1
devotional	2
thickets	2
sympathised	1
wordsworth	1
duplicity	1
fiddling	1
gasp	3
emerson	1
do	1168
girls	60
graphics	19
f1	2
ford	4
3157447684338100457385008523652069340710	1
potently	1
4231429807789561705125693005180428747236	1
strangeness	2
exploratory	1
unsatisfied	4
3456437071610511521617176237598050900553	1
methought	4
woo	3
snark	39
corpses	3
criticism	10
needy	1
ed	9
image	21
caricature	1
immeasurably	1
eh	6
succumbed	5
rebuking	1
el	1
5084783127474791909996889937275229053674	1
nymphs	2
favored	3
trance	1
et	4
sidelong	3
profound	13
marble	2
tuneful	1
ex	2
gibbering	2
carry	65
stared	10
elephant	1
necessity	26
forborne	1
immeasurable	1
fe	2
fi	3
streching	1
2446212456101562729065130618520732925434	1
amerced	1
mistakes	1
india	4
5149145395098100138873792637996487372839	1
modestly	1
watching	36
fox	65
lucrese	2
8843908788792621882023055299371323971943	1
attuned	1
enticing	1
perhaps	77
sanction	6
lowed	1
teachers	27
divide	7
prosperity	9
covert	1
unmeasured	1
governors	1
5573478940019558704784741658847364803865	1
specification	1
parekh	2
3974811269047654625687368435222906321788	1
employments	1
conserve	1
nikolas	20
surmises	2
justly	3
skims	1
lanman	1
waylay	1
upstretched	1
9066952240446521589928642034350988584226	1
pinched	1
gate	20
fort	1
aroun	2
wrestling	4
drab	1
3055716726972591146319906888238930053800	1
placed	55
whips	2
dialects	5
ho	7
battlements	2
speechless	1
9415531513869887818372322713640117558813	1
legislative	5
transcribe	20
authorization	1
enveloping	1
5869291791824150680530025533704127787034	1
relationships	1
william	46
bitterness	11
context	3
physiognomically	1
unaware	3
siphylus	1
schemed	1
itemized	1
id	1
fro	6
plates	5
il	7
dispatched	6
hitchhiker	1
dint	5
townsmen	6
ip	11
metal	3
argent	1
it	4999
disputes	2
resulting	8
odd	15
petitions	3
announce	7
6256785753542399474279194425446646433155	1
3532842543496616084954788090727649930252	1
ix	3
0523918754374252658168500305230187709615	1
uziri	2
lively	13
paddlers	3
cheeks	8
woolfolk	1
524	1
pkunzip	6
crafty	2
shrieked	5
discoloured	1
wider	5
ornery	4
4214256107189684662633587441497697392156	1
widen	2
accrue	1
gibberish	2
freest	2
8180895021553100673598184430429105288459	1
eventually	7
oea	1
yanoff	5
bauble	1
originators	1
441495	1
literature	20
library	110
sphere	1
windings	4
slump	1
customary	2
camera	4
belief	13
personify	1
proficient	1
remembrance	11
sadly	9
4683205563631643189391762626993103428948	1
seemed	251
pcmcia	1
mentality	1
despairs	1
glancest	1
3309250834966458416565542612941951088471	1
penitent	1
snowpeaks	1
wandering	15
off	282
9109953327375561090578378455945469160223	1
libcat	2
knee	5
disposition	18
fastness	1
dregs	2
troublesome	1
lc	1
1045254700948994076012152476028199638463	1
despoiled	1
complete	36
april_	1
fun	11
nipping	1
accomplishment	5
triumphantly	3
malodorous	1
fur	4
lo	17
outcast	9
moderator	2
ls	2
placid	8
biling	2
political	46
pools	1
_quran_	1
8101482077993565230564904207113641922001	1
pitchpoling	1
hangup	2
marvelously	1
that	5800
weaving	2
faster	11
infidel	1
ruling	15
553	1
www	141
md	1
limit	10
cwru	1
mh	2
3672084593164394941881138607974670134709	1
fasten	1
dweller	2
4764842052088881172283199004450428448685	1
repulsive	7
tinge	2
mp	1
lance	4
7044368351528538360944295596436067609022	1
alabama	4
camelot	1
cowards	2
mt	1
5693426085376230981047171826940937686754	1
dirt	8
formality	1
talkin	2
7870841214448150347974223121032953592978	1
deities	3
wrench	3
repented	1
coat	10
paving	1
roughest	1
hateful	16
eldest	5
dream	37
sultanically	1
ne	29
prediction	1
magistrate	13
coal	6
hourly	2
athwart	1
favourable	8
wye	2
passionate	6
brightly	3
arsacides	1
kissed	8
2183408598820718646826232150802882863597	1
groveling	1
mixed	9
peals	2
ny	4
2625150974827987779964373089970388867782	1
6248616409386452521779352899475784962552	1
illusion	2
sultry	2
investigator	1
whine	2
considerable	85
elders	7
misunderstanding	3
of	15515
7968148488234293202301212803232746039221	1
4725046988190814647532434236386386024794	1
7370463520132718259241090604009763858585	1
cumberland	3
avenues	1
8675729751892142956525124869439837290474	1
on	2457
4470907910409978597465611245985197215755	1
keyboard	2
or	2979
commonplaces	1
rosebuds	1
foolishly	1
cavorting	1
considerably	5
oz	1
decreasing	1
preconceived	1
intelligent	11
whilst	20
confer	2
madame	4
pc	21
incessantly	2
disavow	1
pg	23
vermont	1
luxury	9
ploughing	3
0913	1
remarks	4
po	7
4683965435885668550377313129658797581050	1
inexperienced	4
ps	6
regeneration	1
5570835998154489128686348072071006178705	1
stealthiness	1
meditations	1
wrest	6
7229025095430141822571803313001481133777	1
apologise	2
periodically	3
5945696857828170203254955525288754644660	1
impeccably	1
promised	29
stretching	1
revulsion	1
partakes	1
1078793451941338259963687950209850330214	1
extremely	11
delightedly	4
slashing	1
engines	2
7269094289829710656068018058078436004618	1
shifts	1
ripping	3
brand	9
breaking	11
2170336151163782359059685168880561304838	1
insanity	5
consciousness	21
old	403
dishonored	3
diseases	2
portable	1
complexions	1
ra	1
squirrel	1
re	125
heathendom	1
scoured	1
wander	10
dervishes	2
twelve	19
donors	19
singular	8
bridge	12
austria	1
archives	19
fatally	2
8490315128061501009539164530614554234923	1
3735744708366215377470972660188656210681	1
unendurable	2
seniors	1
executed	4
seer	18
innermost	1
derided	1
thatched	2
fleshly	1
seen	187
reignest	2
eighteenth	3
8006330593207758971755899258621954620964	1
auctioneer	1
compelled	17
0493833148980338548909468685130789292064	1
disturb	8
origins	2
adore	2
samuel	7
quelling	2
sn	1
generosities	1
thanked	8
caution	6
cimmerian	1
confucius	1
8679106751990099661392062387323187867584	1
cents	8
6591859943091324575886587044653095332668	1
started	63
maoris	3
3210866604791259893835192669449755356809	1
apostrophe	1
connected	36
dealer	4
elastic	2
atrophy	1
assist	8
flowed	5
5905115232356987153971278667180775786719	1
to	13425
compressed	30
8435536402764392777908638966566390166776	1
nihilists	1
malefactors	1
separate	34
1327126624750558225863492842771835583164	1
myridge	2
generations	43
endangered	2
risking	4
rules	48
nebraska	1
3336663383476844380726243073190193635710	1
biting	4
loaded	10
amazing	9
4277945973817146810395192821550688079136	1
sawing	1
trivial	1
remorselessly	1
sprang	34
trimming	2
military	7
up	968
guvax	2
ut	18
treated	29
coil	1
smiling	10
smoked	1
5427570641944088338168411111662007597872	1
retarded	1
va	4
aqueducts	1
lice	1
upright	5
recluse	1
ve	114
5517922669260631327498272520906329003279	1
brake	2
vi	3
recess	4
shimmering	1
extract	1
obscure	13
harriet	1
forge	3
solve	6
vm	2
valiant	1
laboratories	7
quake	4
know	533
conspire	1
exasperating	1
frosty	1
yells	3
comfortablest	1
drop	31
locating	5
ingenious	5
changes	16
vehicles	1
resolutions	2
housekeeping	3
cartwrighting	1
misconception	2
punctuated	1
willingly	9
indendence	1
techies	1
gam	1
honey	8
4100758751490829582275691935054218410644	1
similarity	2
1544808189067620753424526993443755719446	1
lies	23
gay	15
orb	2
wv	1
psalm	1
brighten	2
cases	21
meddled	1
wide	94
tumultuous	4
regime	2
4210687813497346959246469752506246958616	1
brighter	1
mauling	1
apocrypha	1
brides	2
superior	19
4116342441344863086763279491776829230931	1
uncovered	3
deepen	2
conversed	4
choir	2
planting	1
packmen	1
deeper	19
anthony	4
acknowledgment	2
polluter	1
kidnapping	1
torment	8
software	97
smoky	2
woven	2
fruitful	2
troops	1
plagues	2
arnolds	1
seizes	1
forthwith	8
scant	2
bendest	1
terms	421
optimization	1
arranging	8
depressed	5
3460245542470283753000337254039100859976	1
deeply	48
sympathizing	2
laurel	1
phase	1
comp	2
5292735847582937522487377937899136764642	1
betsy	1
method	56
atrocities	1
5198397660693358224779136504562705766735	1
womenfolks	1
veracity	1
scroll	2
uottawa	2
smartest	2
quainted	1
susceptible	2
exist	17
8927688163598312477886520141174110913601	1
enounced	1
conjectures	2
tillers	1
fabric	2
exact	16
lift	10
force	60
resourceful	1
proletariat	63
6248074325424641959846474115756254410103	1
oaten	1
confounded	1
caprice	1
precautions	1
periodic	22
gee	2
2045780705413525769032535227389638474956	1
robes	7
ister	1
2186545997159663901564194175182093593261	1
nervously	1
tools	23
evidenced	2
baleful	1
promo	1
lurked	2
dart	7
consuming	1
ghost	11
indue	1
witty	3
grubs	3
cheerfuller	1
nagging	2
streaks	1
danish	1
continued	80
sally	2
hoople	11
coffin	8
sely	1
transformation	3
collating	1
narrations	1
depth	3
referral	4
trickling	2
wherefrom	2
firmness	11
superstition	3
unravel	1
2553477400110485399696054992650809391069	1
edible	2
insulting	2
passers	1
dashed	12
dress	17
blot	9
overpowering	3
ails	4
reveal	15
lamps	9
rightful	2
sound	93
unacquaint	1
3907386708329869107809349582888870711065	1
presentment	2
hanged	5
argentina	1
bearer	6
publishers	6
3238877079996986413722755263176496628824	1
criminal	17
decays	2
sunny	3
avoiding	1
oars	6
like	703
mattock	1
asserted	4
depended	12
rumbled	1
sensibilities	1
pamper	1
brace	1
earthquake	5
judged	18
nightmare	6
7824887350292591668258944568946559926584	1
core	6
befalls	1
addressed	23
haughtily	1
anatomical	2
dazzling	2
sprawl	1
branched	1
1061344455441921013361729962856948991933	1
sagacity	3
necessities	3
concrete	1
moonlight	12
regret	18
penalty	9
exile	15
riding	11
recovery	5
kinder	7
refeeding	1
organize	2
buck	11
surmount	2
hearts	21
feeble	8
challenger	2
continual	7
allegest	1
undiscovered	5
herd	7
nose	21
refreshment	1
feebly	2
habitation	5
confidently	3
smoke	23
wily	5
0210296033185887273332987793525701823938	1
follow	88
nort	1
treats	1
washing	3
tuesday	2
parthenopaeus	1
york	35
wretchedness	18
4849644534346121292249647323561263219511	1
assured	32
skies	4
challenge	14
edged	6
vanishing	4
satyr	9
8424333555095822191286279720545546626709	1
anthem	1
muds	1
almanac	2
wastes	1
teeming	3
spacious	1
mormon_	1
your	1116
explanation	60
rides	2
lateness	1
assassin	8
youth	44
these	727
twins	2
nominally	1
virgin	10
8146223642994939020732850720980409053000	1
fluctuate	1
sovereignty	5
racking	1
persistent	1
subtly	2
5258056594703046836344592652552137008068	1
wins	2
windless	1
munching	1
perpetrating	1
coup	1
gladiator	1
thoughtfulness	1
volunteers	111
8996589374772875139337710556980245575743	1
lynxes	2
dissension	1
righted	3
sender	1
thud	1
cove	1
rokoff	178
historically	3
wink	2
seizing	6
enlightened	6
bubbles	1
wing	4
3821939520292791797324709455969101640298	1
thoughtfully	1
revived	6
entitled	4
commodity	3
harbour	7
airy	3
negress	1
7697477445194704383673960007657862824547	1
concluded	17
achieve	6
yourn	1
1433194347640357253769143888996830882628	1
misery	77
fates	2
tribunal	1
plausible	3
weekly	3
cutlasses	1
mastery	4
arrived	43
bugs	5
economically	1
xon	2
dircompg	3
sexism	1
8023519303322474501585390473041995777709	1
misere	1
queried	1
deceitful	1
lights	9
revolutionising	3
merciful	3
strapped	1
licensed	19
committee	6
7699768371476455985267392259049978855142	1
sharper	1
3874624831385021498040168194079568721926	1
union	59
deaden	1
faced	21
plentiful	6
printing	6
7822976841001176579870981857251313722677	1
wipe	3
veins	5
americans	1
subtle	6
foliage	13
component	2
impartial	4
overwhelm	2
speaks	8
days	244
combined	13
disguise	5
reconnized	1
reports	32
sharply	11
goo	2
sworn	3
kerry	1
imitate	4
wish	113
deadly	18
compute	2
bushrod	1
possessions	3
pad	1
aspirations	7
wisp	1
pasted	1
_available_	2
enumeration	1
callous	4
vendors	4
conversation	29
dismount	1
roared	6
5415163381388912588517924237727229603497	1
inquirer	2
lace	3
snorted	1
revival	1
unsepulchered	2
andrew	7
neglected	11
toast	1
ares	5
tails	5
flayed	1
sobering	1
sinking	5
treasury	1
authority	27
folks	20
605	2
agility	2
permitting	3
creature	81
legislature	4
8542735985913041306918279258584509440150	1
6686109943830499604374073231957844732548	1
0413832411607226029983305353708761389396	1
divided	19
instrument	15
6790109453111712024389032341025993751158	1
medium	116
61820	2
methinks	19
espouses	1
wisdom	36
starvation	4
eloquence	11
compiled	8
producing	5
psychology	7
612	2
2672343271868099625045432475688702055341	1
ucop	4
germans	1
treasure	13
reputed	1
ridge	7
ruggles	13
ventured	15
minutest	1
gutturals	1
departed	25
perform	35
peak	3
evolution	3
portrait	6
colorado	2
alternet	2
stretchers	1
cowardly	6
namesake	1
4152027721127070187421548123931953220997	1
crutches	1
china	10
furtherance	2
redemption	1
bowstring	1
pervaded	1
4557	18
hopeless	12
wade	1
upraise	3
strands	1
filleted	1
cheerfulness	4
plies	1
channel	13
enervating	1
6928309190601737076465465568341320755631	1
invisible	8
tumbleweeds	1
surcease	1
pussycats	1
minutely	3
entire	24
implant	2
wrist	2
crowning	4
doting	2
habitually	4
minefield	1
furbelows	1
laquey	3
ordain	4
revive	5
write	41
pet	5
sneer	2
period	41
heaved	2
4738333151014683952964113973296724579335	1
impertinent	5
4586	1
extremest	2
birth	43
besiegers	1
underlying	2
unwelcome	2
monarchies	2
intelligence	20
harshly	2
imaginations	4
yaller	4
install	1
g21135	1
shadows	10
bull	28
vacancy	2
gum	1
braced	4
doubted	11
rashly	4
egyptian	2
6378958652454628134392893383651565369924	1
lustrous	2
dodson	1
magnificent	9
kinds	20
irregular	8
waif	5
prevalence	1
tainted	2
encumbering	1
_yours	1
smothered	4
everywhah	1
hitherto	24
violence	15
telecommuting	1
injurer	1
availing	1
robust	3
bodyguard	1
6612402787588310102149528460080480502804	1
ucsd	1
pacific	7
opportunities	28
inconsistent	2
swampy	3
peek	1
garments	5
schemings	1
charred	1
reynard	1
misdirected	1
twain	17
attributes	2
renovating	1
tonight	5
imposed	25
2344049394502115428867244188717409524554	1
overcast	2
equally	27
holster	1
broadening	1
manner	89
penetrating	3
mayest	3
8731063181119898802897228497905510751484	1
palisaded	1
pip	1
compendium	3
lipow	3
thundered	3
mosques	2
pit	7
vilest	1
reptyle	1
cropped	2
peddlers	1
everyone	16
accumulation	3
liability	66
snapped	6
6158335258035285827579903858409166761887	1
italics	2
strengthened	4
bulleyn	1
unpunished	2
nonce	2
resolute	2
loins	4
lamblike	1
votive	1
snow	26
limbed	1
arms	61
8271686445483065466339752560796159358308	1
turbans	2
lake	78
twist	2
precipitately	2
wriggled	1
appalled	4
maddening	2
sacrificed	4
godspeed	2
agitated	9
targe	1
hurling	3
7971881878543767977516759278223003129455	1
ties	12
intended	31
land	233
kindred	6
dismally	1
1947457023582954813657818098679440202202	1
allude	3
pocketful	1
idealized	3
elevation	1
burn	9
tingled	2
wring	3
kicked	9
automatic	7
foremost	10
bareheaded	1
satisfying	2
apologies	2
burning	16
merchandise	3
darting	3
obey	22
interested	41
buulaoo	2
refusing	7
culled	1
snorts	1
prototypes	1
apparatus	6
ardently	11
joints	3
evanished	1
witnessing	1
9517354444909657521310263068360471403314	1
lolling	1
password	19
ftpmail	6
puffing	1
liberty	41
8689847811138328054940490519768008320299	1
arrangements	3
thinks	9
meeting	31
events	23
chicory	1
tuning	1
insurances	1
begat	6
edited	5
forecast	1
relapses	1
whined	1
8584053644602161651788556896930268518895	1
slayers	1
tarzia	2
retracting	1
foresaw	1
8511598745434093204010221898270753921240	1
wans	1
umslvma	1
backwoods	2
butt	3
actions	12
roves	1
estranged	1
beclouded	1
sunrise	6
glimmering	3
gilded	2
dispersed	6
scanning	3
crops	1
facts	32
pilgrims	1
pent	2
ravine	3
incompatible	1
pestering	2
knight	2
forebears	1
canal	1
0882773391472820637945122602945157073671	1
flaunted	2
escape	115
demonstrating	1
receive	98
christ	7
fanatics	1
5059	1
evoe	5
affability	1
sauveur	1
intimate	8
dislodged	2
theft	6
6631880502655592956812395968044929516661	1
colonels	5
religion	51
fecundity	1
momulla	36
disparate	1
8096395500800233476761870680865268787227	1
0779051682258572357326652344149561690079	1
yacht	3
5358157481402247126061897306086055906508	1
charm	10
defiant	1
implies	1
withal	7
jerkin	1
smith	3
blazoned	1
antagonism	6
banishment	7
lightnings	2
mischance	2
had	3153
accounting	1
anymore	2
subsided	4
0883826761845875636102643518295181539245	1
hitched	1
nunnery	1
hap	3
brutally	1
things	244
hat	12
beauteous	1
keyword	4
wast	13
clerical	1
inherent	2
accountable	1
encroach	1
perish	13
pronounced	14
pre	4
gooey	1
quivered	1
outgrabe	1
crimes	22
wash	3
molasses	3
secrets	9
bloodless	2
vestige	4
chalk	2
congeal	1
employees	42
wars	4
muzzled	1
sickbed	2
montessori	1
curved	3
8457680687049780448241057997107715775790	1
asking	14
_obtained	1
impossible	32
0529418296918023571205453282318092703564	1
tramps	1
video	3
surroundings	3
6399489868361689193778366483271373636546	1
booming	1
tint	1
agriculture	10
freak	1
forbade	2
courageous	2
contemptuously	2
jacob	5
wonted	1
early	61
ence	1
yes	148
intruder	1
forgetfulness	3
lowering	3
steadiness	1
grumbling	5
_s_	1
childless	3
windows	37
engineer	2
quieted	2
wages	15
characteristically	1
songster	1
convalescence	3
infrastructure	8
heinous	1
seclude	1
observing	4
buzz	1
bravery	3
applications	7
unquestionably	2
hammered	1
desertion	4
aggravation	1
circles	3
cyan	1
6819344183059870218805022591928180477752	1
put	204
sloop	10
hattie	1
5153096948758378955979586132649569817205	1
intellegent	1
carbon	1
circus	1
jackets	1
odour	1
probabilities	2
rustled	1
reassuring	1
sociologist	1
having	138
incurable	2
russian	120
subscribers	6
edjackly	1
1279532268823904649823908159296111100375	1
dossier	1
supreme	18
kansas	1
philosophy	18
veiled	7
junior	1
pungent	1
hempen	1
armourer	1
muddle	1
8553335727977220554356812630253574821658	1
fists	4
baskets	1
pirate	2
infection	2
ponderous	1
stubborn	5
doubled	3
satisfactions	1
formulate	2
indictment	4
imprudently	1
overshadows	2
mailing	22
aiguilles	1
alien	8
valuables	2
concourse	1
chubby	2
grown	23
attest	1
profligate	1
deficient	1
editor	7
grasping	6
ucdavis	1
fiasco	1
efficient	4
goading	1
tranmitting	1
eugenics	1
mummies	1
glories	1
earnings	2
excitedly	4
grove	6
organized	21
garden	42
lamenting	1
choice	22
tricycle	1
waging	1
facility	22
lays	5
5064833303404765711827040276868271418084	1
gimme	2
small	170
beam	3
gallant	5
hid	31
unmanning	1
civilization	32
mead	1
3070995662266203031826493657336984195557	1
0783145775891280203970053633193821100095	1
wondering	6
hit	28
deadliest	1
vindictive	2
interrupt	5
consider	37
5677628023346565854351219361896876831439	1
group	49
awaited	5
protruded	3
chalking	1
railed	1
repeatedly	4
damper	1
workshop	6
guidebook	1
accentuated	1
1550	1
shouting	9
blackguardly	1
4631855976580561717446840450048285353396	1
0579549008076040034154662137669606444293	1
square	25
sailors	35
thwarted	10
southward	1
1364335641324297420813726689614910956421	1
litanies	4
muddled	1
unerringness	1
soap	7
induces	1
request	52
composure	7
beck	1
convergence	1
affiliated	1
7185508816658756751184338145761060365142	1
4381776081007739183393749346933644748150	1
percent	2
thirteen	4
uttermost	1
beagles	2
september	11
hyena	2
devolved	1
caved	1
sneering	3
shuddering	8
longingly	1
trudged	1
3059212366771943252786753985589448969709	1
9802266940456421813286245175496521472216	1
philosopher	5
reproached	3
eighth	2
alternative	14
craven	2
nearness	1
workmanship	2
encounter	13
meal	27
6320744499185114691744550622971460865787	1
listed	9
6293424981417805646161586341533863507722	1
approve	5
neither	66
juggling	1
meat	28
persisted	6
account	63
irrepressible	1
ticking	2
meed	3
alphabet	1
rectitude	2
landowners	1
traitor	4
0598267609442032619242853170187817729602	1
8269148784355679352572808875543164693077	1
7559610316769658716128195191966889332664	1
3503943531836741051762565704797064478004	1
avaiable	1
strict	22
hunting	39
you	4445
prime	4
dblook	1
seamless	1
7632344291124231136860372451443876580127	1
edict	4
scoundrel	7
tricksy	1
court	36
routs	1
unintentionally	1
venture	20
donkeys	2
population	37
meditated	1
entreat	9
valuation	4
6412777395311302041566848265531411348993	1
souring	1
deals	1
lumbering	3
precipitous	3
wisely	4
dipperful	1
begs	2
sweetly	3
mutilations	1
4585748228606859593502657405750939203135	1
0029086683054317870093550669443891319133	1
comes	59
soil	18
6182955669893965019614544401768162810604	1
8291173854273579715415794368949106375974	1
5060281902452191177018634505171087023903	1
abuses	1
characteristic	1
compuserve	8
manorial	1
haunts	6
disparity	1
soho	7
profaned	2
handiwork	3
shirtsleeves	1
spare	13
predictably	1
1092886778920270077504951511405782565295	1
terkoz	2
ungracefully	1
brooches	1
march	27
transition	1
atonement	1
siffra	1
mutter	3
meet	97
outrager	1
phenomena	3
purse	2
publications	5
escorted	1
goodwill	3
compete	2
putting	21
domingo	1
questions	53
foregone	1
robbery	2
moadine	19
bulge	2
leaned	4
enjoying	6
hqx	6
arched	1
hold	140
absurd	3
cyberspace	1
blockade	1
simplifying	1
richard	8
7870937650226014929101151717763594460202	1
dedicated	7
upstream	1
extents	1
thrace	1
2001	25
count	16
trough	2
researching	1
7457056944878307794587886506297089549984	1
failings	1
zones	2
transgressions	1
1961123571888111507236073031585066225745	1
contradictory	1
take	267
rawness	1
probity	1
2060512183941851623915370979076808490967	1
1703644242694283057457471567494391573593	1
blame	18
seamy	1
relatively	2
prestler	1
4656	1
carrying	29
figs	1
hinge	2
upbraid	3
bwana	9
beginning	51
fudge	1
2012	2
astounded	1
grooms	1
buffoon	3
apiece	10
telecommunications	8
cursory	3
2009	1
backspace	1
2005	2
deceived	13
trot	1
offences	3
6210799357673731794896425248881372043557	1
halloo	4
santo	1
unfinished	6
glutted	1
reception	6
shameful	2
quitting	5
atone	3
respects	11
owner	104
artemis	2
3288314403227980492741044039217614384057	1
murderously	1
chagrined	2
72600	1
trod	7
darling	8
idiot	2
remembering	2
intrust	1
killed	46
home	248
michael	68
disinterred	2
hickey	1
material	25
cavern	1
interlinked	1
marching	8
proclaiming	1
spectacular	1
7429563464371670939719306087696349532884	1
comforter	2
unshaken	2
huh	2
rites	13
intellegence	1
illustrations	3
6613996097531052957735846185258652118933	1
mongers	1
staple	2
therein	3
hut	57
answers	9
fetich	1
6693134575284011873746854691620648991164	1
3361	1
tracking	2
soon	304
meltzer	2
scholarly	5
glued	2
tables	8
6418137305837933236150599142045255880213	1
hook	3
revolved	6
opprobrium	1
rheumatism	1
guidelines	3
glazed	3
accompanies	1
riverbed	2
heartless	3
belt	5
varnishing	1
executioner	4
31st	1
barks	1
hoots	1
distinctly	12
bell	16
heavy	77
altered	10
whitening	1
deviating	1
repulses	1
culprit	1
scraping	4
faraway	1
7420571828540901363257214375920546404718	1
underground	1
explored	1
7320960125647945148271256713266970673671	1
hardest	5
reddish	2
pageants	1
summed	4
shield	6
britain	5
radicals	2
3298135436451240922208966439872019979456	1
painted	14
diligently	2
unpleasant	5
trailed	4
reconciling	1
futique	2
precincts	1
moses	4
whereupon	7
quarterly	1
renewest	1
notify	2
curtailed	1
eight	27
egress	3
nerves	9
broadside	1
3095481593545075492355416776687645521254	1
pained	1
sensibility	3
greasy	2
5874211532846422030065507639667561683188	1
bloodiest	1
777	1
degenerates	1
incidents	8
travail	2
steve	2
caravans	1
heave	2
1772522568261147801424289697096712196750	1
8638015760072406016495470823313493615824	1
actuated	2
6562481878200276996373415588000086785256	1
abstracts	1
manoeuvres	1
favourite	17
menu	24
corrected	9
4886929842786582357673195799285293120866	1
mediterranean	3
withhold	4
ariel	1
machine	66
sulkily	1
forged	6
3719869591645186943232424640440167238197	1
british	1
jekyll	104
serve	40
envious	6
reptile	2
acquiesced	1
gunwale	3
radio	6
importing	2
6227929862827094462759150096832263450737	1
inviolate	1
confused	7
scampering	4
6395173941101311525027504657493430637665	1
admonitions	1
delaware	4
opponent	1
backward	8
accelerate	2
supplementary	1
unworthiness	1
misliking	1
selected	11
lordship	2
cities	10
petulance	1
counterplot	1
divisible	1
illustrate	2
enfield	19
seriously	11
fill	15
steps	52
friends	162
omniscience	1
corporations	1
hellum	3
coded	1
forget	32
flatteries	1
horn	7
convenient	8
sawdust	1
scientists	4
header	5
concoction	1
sore	14
sentiment	16
soup	3
nexus	1
cadmeians	2
sheath	1
borders	8
7052722787494032125064542620630446947080	1
soul	113
abundance	4
stalking	4
surveys	1
certificate	2
quantum	1
meagre	2
sooth	6
peerless	3
invulnerable	2
scandinavia	1
philistine	3
opinion_	1
asseverations	1
rooted	4
magazines	3
gude	3
processes	1
0837147204067428996276720315410211504333	1
3695561934763859818775685591237623258084	1
pretended	8
stealers	2
pythia	1
croaker	2
finn	12
heaps	2
attraction	3
beech	1
intensely	3
lions	15
mera	3
hott	2
canoes	13
diligences	1
thyself	25
mere	43
pulling	3
helplessly	1
opinions	8
1887879542641820145369659962842686882363	1
hypocrite	2
merchants	2
coming	83
stumping	2
falutin	1
ruthlessly	1
4384605963258204688096677957090446458846	1
appraisingly	1
sown	2
oughtn	2
giddy	2
envelop	1
precipices	7
convulse	1
cover	13
conveyance	1
annapolis	2
refinement	5
dissolved	2
solidity	1
based	75
pointer	5
servility	2
primordial	1
savvy	2
herein	1
tiger	7
mehtinks	1
8870712275670333173939262509073556164513	1
8141606391312359753503903200775295873924	1
wield	4
forgit	3
3767274502716389752341114262878287367583	1
processing	31
except	100
9328721532351959996167502975324759319099	1
captor	4
pawnbroker	1
2838169433097501291854459692338873328861	1
religious	38
isthmian	1
saturday	12
sabbath	12
superiority	6
jewel	3
6665196042635040645486254338377220942848	1
fret	3
extremities	3
pieces	18
monotony	3
christian	14
excess	12
spire	1
unsuspected	1
wonderfully	3
rugs	5
fred	11
4094213213002061645408219861380994627212	1
honour	21
irregularities	1
reaction	4
invade	1
2756310722334672611370549079536583453863	1
trousers	8
1664172108314055186413330222478711851181	1
propelled	1
clump	3
goner	2
abandon	7
ruff	1
cudgels	1
sacrilege	3
household	4
invite	2
intolerable	5
operation	8
ratio	1
calculation	1
3018370155575408223715380378383833427023	1
conforms	1
leaved	3
dingy	3
reputation	18
consign	2
ice	48
honors	4
afforded	10
budge	7
beseech	2
innocently	1
awkward	10
icy	8
vanilla	42
exaltation	1
comitatus	1
streamed	3
zen	23
7325543372980735616998611019084720966007	1
impatient	14
superinduced	1
replacing	1
thrice	7
finding	45
enlarging	2
2911	1
announced	11
reactive	1
extends	1
freeware	1
weald	1
rankle	1
anthropoids	6
knocker	2
sighing	1
life_	1
serials	4
reasons	20
soothing	6
delusion	1
traders	5
tellers	1
sgml	3
jumped	23
update	2
srcmuns	1
purge	1
girdle	3
canvass	1
recognised	7
resentment	3
decrees	1
poem	5
expired	1
unregarded	1
multiplied	1
declaring	3
wants	17
fretting	3
2926	3
every	371
shave	2
mansion	1
afterhours	1
simulating	2
coordinating	2
akin	3
answered	42
madness	17
indifferently	1
slumbers	2
commend	2
spine	4
theology	2
indeed	159
sands	3
trill	1
deficiency	1
imaginary	2
comment	3
2937	1
0450851021007152235234279253126693010827	1
fireside	2
railroads	4
quirks	1
guns	13
aetna	1
folding	2
7761219812979540401506539853415790536291	1
discussions	3
binding	4
avowing	1
scutcheons	1
fellowshipping	1
6405328292942735797182336084278467629232	1
jeff	160
during	134
stamping	2
wisest	7
bestir	2
firth	1
degrees	17
prick	1
hippos	1
charitable	20
2265412913204052279071212820653775058280	1
untried	1
glared	7
liabilities	2
slants	1
disliked	3
sharpness	2
2871148749531862180941719676843144666435	1
crest	2
flickered	1
briefly	11
swelling	4
9131902370311779690892786623112661337671	1
0943996091763545687990028145151697437175	1
solomon	1
enjoyment	12
spectrum	1
6911055101472799040386897220465550833170	1
prolong	6
tidbits	1
patrons	2
danced	5
broadcast	2
steel	11
civilized	22
regions	9
dines	2
steep	9
classical	1
steed	4
privilege	11
shroud	4
lessoned	1
pictures	22
sheriff	1
nick	2
discontinue	18
fall	61
moreover	11
decisively	1
sepulchre	1
hopes	32
overshadowed	1
witnesses	15
outlying	2
finger	20
5160346364438626997729575065846892959980	1
delineate	1
expends	2
agency	6
inhabit	8
grimaces	1
innate	1
2600436885088171572386698422422010249505	1
sweetness	6
2838441522579419764824996318479414814660	1
nobleness	1
fascinating	4
0147117478464839241225676523593418554066	1
bewailed	2
gladdening	1
planks	1
paints	2
7798846114601507761711626180078155791547	1
anonymous	52
accordin	1
ebullition	3
hovered	2
impurity	1
perfect	37
sirrah	5
struggled	12
poll	1
minority	4
sinned	7
theater	2
inferred	4
nephew	2
centering	1
perversity	3
resistless	2
healer	1
privations	3
viruses	1
schiavi	1
6409754591856956380236370162112047742722	1
4586984973325998011874796642731402793812	1
workstation	4
mosula	21
unvisited	1
solicit	37
rhyme	1
fading	1
rejection	1
manufacture	6
arbiter	1
errands	4
freenet	6
bondwoman	1
1570446272317777886498067007235988895287	1
annihilated	1
1362589418097880156773789513103131573611	1
fame	10
rumble	1
invariably	3
8020728394418264502183131483366019384891	1
pelting	1
14th	1
repair	3
wriggle	1
clawing	1
gnashing	1
ruth	1
noiseless	2
steal	9
arrival	20
5405141956107800902986670146352385320660	1
accommodated	1
overfill	1
distractions	1
imo	1
denounced	4
powder	6
shinned	4
stead	14
2381299032601981605719711839506627582203	1
forsake	2
holding	30
atdp	1
attendant	5
moments	37
public	295
winds	9
russ	4
track	17
ind	1
proportionately	1
tinged	2
chariots	1
bruited	1
fortune	25
monetary	1
paracelsus	4
3870778107974409755566278073712280303500	1
lampoons	1
connecticut	1
resources	63
unheard	1
sisters	17
shameless	3
int	3
expensive	16
inducements	1
worthless	3
gush	3
insisted	27
stages	4
aiming	1
gust	37
juridical	1
unrest	1
nailed	1
accuracy	4
redistribution	36
scenarios	1
impunity	3
countenanced	1
properly	12
quoth	5
prowed	1
isle	4
unanimous	4
dilapidated	1
corinthian	2
scorn	11
gratified	5
improbable	2
ran	66
grief	42
cerfnet	5
massacred	1
ashamed	18
unlikely	2
needful	2
younger	28
fairly	30
8120244517540185213266374053880290124972	1
keelson	1
handwriting	4
adapted	3
8886549500270853923617105502131147413744	1
atdt	5
shaking	7
1903163988743304222632202132536817604416	1
snore	2
untimely	3
hurried	19
charges	28
sorted	1
pearls	4
shocks	4
endure	30
0445962632793463772115102854547231288003	1
poster	2
7826785387215920936255817889813416247486	1
desiring	7
weeks	28
successors	1
jupiter	5
unkind	1
ornamental	1
blamed	1
8413190463683321791150591078138982610262	1
proscriptions	1
warps	1
ripples	1
8731761732323526360583817315103459573653	1
cruellest	2
omnipotent	6
unrelenting	3
peeved	1
humphry	1
scott	7
5315006453462321007133584907633048328153	1
linked	22
breathed	10
federation	3
pathos	4
retainers	1
signify	3
howlings	1
distributor	18
practised	1
tickling	1
trials	2
loosely	3
qualities	15
pulley	1
routines	1
crashing	4
clambered	7
heeds	1
restless	6
persuasive	1
milkmen	1
senses	20
moved	54
7886039901574952080654434094624466346532	1
bosporus	1
talkiest	1
unce	1
fortunately	11
copet	1
offender	1
1436178914151915179765378482826870187500	1
7661237826975063430472632784537190244479	1
breakers	2
nuptial	1
frogs	14
intuition	2
clomb	1
gifts	9
swift	27
moustache	3
rev	6
accede	3
sunder	2
amend	2
upbraiding	1
brasses	1
1718954899055748693397700245632475954504	1
seventeenth	1
rfc	2
retreat	11
barbarism	2
ache	1
ratters	1
carnivora	4
1869916091555091087891943125367194565126	1
ruins	5
distemper	1
exchange	26
hesitate	10
perfidy	1
income	1
purveying	1
raged	4
primal	1
bartered	1
standardization	1
cray	1
treachery	8
paste	2
overtake	12
directory	41
handspike	2
debarred	1
jeans	1
truss	2
dues	1
demby	7
ticklish	1
glitch	1
9518138014471681728499679306181417713191	1
laser	3
errest	1
irresponsible	2
strikes	2
nurtured	2
kahle	2
fourierists	1
hares	8
reigning	2
cigars	1
judicious	1
message	77
aft	8
truth	75
861	1
bagpipes	2
2137	3
cram	1
doughnuts	1
joyless	1
pledge	5
collectively	2
pushed	11
age	64
albeit	1
pasty	2
college	20
agi	1
incantations	2
configurations	1
boarder	1
faults	15
saith	4
5413826554338848777885997206367966069232	1
fisher	7
eavesdropping	1
number	145
defect	58
connects	1
punish	11
reinforce	1
876	3
coaling	1
property	125
strangely	11
1833063223294219913213761450641139126983	1
frock	1
cracow	1
uffish	1
utterance	7
fachan	3
algorithm	1
7598342205080893512902312247597064410567	1
guiltiness	1
muscled	1
unzipped	1
1600117160338604710710015235631159734711	1
distributed	81
1251617607899846301034934969814942610553	1
tough	8
playfellow	1
hairy	13
waltzed	1
courtship	7
shrunk	1
silver	20
presenting	3
8970762366830255616755947749871518342698	1
partial	5
carefulness	1
crawlers	1
methusalem	1
luscious	1
city	105
minorities	4
4797346759931594651478702506527108350878	1
uncle	25
fairer	2
retain	3
blurb	1
cadi	1
local	49
phraseology	1
9874663685629265505822288771322178144048	1
oppressor	3
4886899518123947062595425458449134020340	1
cookbook	2
steadily	12
imaginable	3
whitewashed	2
implores	3
disclaims	4
promptly	5
vacation	1
decisions	3
ordinance	3
7210564861918603858715882024476138160390	1
degeneracy	2
burroughs	5
jews	1
drained	3
rests	8
neutralized	1
pumps	1
3883499894707416181550125397064648171946	1
recollect	5
lashed	3
preceptors	1
aka	1
nisc	3
cite	2
removes	1
moan	5
royal	13
shaw	3
tunic	1
prosaic	2
alleging	2
unfeigned	1
kidnappers	2
1099715883127800208982759358981064821179	1
bordered	1
missouri	8
commenced	31
extolled	2
correspond	1
mode	32
amongst	9
brains	18
modified	21
presume	3
snout	1
exultation	4
stocked	2
twisting	1
4699052366350233024087218654727629639065	1
pregnant	1
abhorrence	10
3833585095366658066055971483767738669225	1
buffers	1
1314503438573403257954970781938528569992	1
whopper	1
goodwin	8
touch	40
barrels	1
devouring	4
couples	1
strangers	22
maintaining	18
warra	5
differed	8
mended	3
cybernaut	1
slips	1
supercompter	1
mailing_lists	1
usask	5
dusty	2
gear	1
1540143595952986834046574717562321966405	1
0645722582281175483887671061073178169281	1
toiled	1
assuaged	1
hiring	4
equipped	3
humankind	2
rod	5
incommoded	1
farthest	3
contracts	2
strangest	1
favour	10
xoff	2
domineering	1
nevermore	1
2695826544782056729877564263253215942944	1
basalt	1
confiscated	2
and	16299
beaconed	1
petitioned	1
3686120162437365698467037858533052758333	1
construction	5
inattention	1
abroad	18
guilt	21
fifteen	17
unsealed	1
poles	3
ant	57
warnings	4
portmanteaus	1
perched	1
contingent	1
rpi	2
irresistible	5
7987468353429629749652545426864234949270	1
intuitive	2
reverses	1
reck	1
forewordby	1
2183713605971802594087061553471310448227	1
suggested	42
untie	1
swirl	1
reliant	1
irresistibly	1
communicated	8
ninth	2
moen	1
rebels	2
emanated	1
parson	2
messrs	3
collapse	1
ferment	1
comprehend	9
multiplicity	2
thought	345
8453825888112602753909548852639708652339	1
1270688087538640866990146174089054098187	1
taste	20
gradu	1
3304527954661855096666185664709711344474	1
foretaste	1
5240828501201908310786780670618511457409	1
netinfo	3
exalted	4
naught	16
4512722373788612605816566805371439612788	1
3830943399938338801883955382154037144739	1
0923011965591491580056170725851850316728	1
jar	11
poverty	24
gentle	49
resort	11
yuther	1
apr	1
1649950766290779436460058519419985601626	1
deeds	30
hosts	11
sampling	1
tarnish	1
shabby	2
strutted	1
archivesj	1
testament	4
shouldn	2
ketch	1
cain	1
1768901896614540445367904713629423815612	1
toilet	1
003	1
rings	2
007	1
grade	5
gently	17
vaxes	1
tyrants	3
9493128666534650337288463906499684606447	1
scatters	1
corruption	5
constantinople	2
curdled	1
frequently	36
denman	1
predecessor	1
menagerie	3
010	2
increases	7
fertile	3
8882493421364424178335193197865439402014	1
notion	9
dosed	1
diversity	1
014	1
pockets	13
watchman	3
rsx	1
018	1
taken	104
visions	9
where	538
7544622061186499127249643799875806537850	1
broader	1
coarser	1
popular	18
abstruse	1
1413620489265556681094670763865360830158	1
broken	52
stitch	2
art	86
detection	4
hollerin	2
strenuously	1
vaults	1
favors	4
lacking	7
suppress	4
broker	2
outgrow	1
darky	4
bower	5
curls	1
021	1
notices	1
speculative	1
calm	34
5672006283974482871329822395757910542081	1
025	4
3595862871066549628259953512719324463579	1
ownership	3
9924333943609362233903214993572625074806	1
calendars	1
partners	2
029	1
armed	19
theories	6
ossify	1
6375154630483311272223181233837177980043	1
5823022574559749442750676309263225299663	1
fabulous	2
rub	4
solicitors	1
through	359
foundry	3
3773682405109025837593451700153405222661	1
towering	2
run	83
justified	4
fringed	3
festering	3
exeunt	7
cans	1
032	1
pharaoh	2
debate	4
either	125
036	1
ours	37
9045967947046685602358283919759975285865	1
libations	1
yassir	6
defraud	1
inlaid	1
recollection	12
cracks	2
5949302092112205261031239068294134569678	1
defiance	6
purest	3
0404868220007234403502544820283425418788	1
2268447162560798826517871341951246652010	1
accomplishing	2
pdqbach	1
quotations	1
mole	3
unfitness	1
delicious	5
043	1
screaming	17
difficulty	40
daskam	1
longer	102
047	1
signals	1
gladly	14
name	186
spaces	3
crow	13
worst	33
mourn	13
thunderstorm	1
_mass	1
9014292858678172404424804932375033095700	1
1818271276125025241876177485994084521492	1
mood	12
absence	22
attract	3
truck	5
dromedaries	2
050	1
coughs	1
054	1
vanishes	3
alma	1
058	1
sniffed	4
whisked	1
plains	8
watchmen	1
hence	38
analogous	1
shoe	2
scruples	1
sensing	2
7049524172324282065553228088686701536814	1
palaver	1
roaches	1
inaction	2
learned	87
introduce	11
resolving	4
7192282283045169111363652774517975842147	1
werter	5
061	1
disused	1
bond	6
awe	13
065	1
discourse	5
target	7
doggedly	1
compensated	2
069	1
mouth	48
oust	3
earnestness	7
fangs	26
assuming	1
1963126752689163621363510326480772329149	1
affronted	1
cape	8
hastening	3
9898683901335795857624435194008943955180	1
leader	13
gregariousness	1
7491582860169443992004157110270608150727	1
near_	1
072	1
crocus	1
mantel	1
upturned	2
ruffles	2
proficiency	3
076	1
peevishly	1
cast	48
cupertino	1
carriages	2
vestibule	1
8317742021406898070341050620023527363226	1
connectivity	8
northerly	2
shirts	6
auditory	1
8531386101867292188934703934207224555679	1
princess	45
cash	6
item	2
subduing	1
viii	3
mope	1
7941973192220960296582500937408249714373	1
eighteen	2
supplicates	1
083	1
limply	1
runners	6
matches	3
087	1
cleanliness	2
schoolchildren	1
cars	1
9092519383155609441705397900600291315024	1
omen	1
imaged	1
detestable	4
legislators	6
bounds	11
reveler	1
reset	1
refined	3
excessive	7
jungle	170
wearily	2
improvers	1
participation	3
cherry	1
vindicate	2
assault	4
purely	8
gleamed	1
elicited	1
abridgment	1
8317786947778049643439917625492165006086	1
090	1
5830412258608050740410916678539569261234	1
7194304251179404567986211463013840237109	1
094	1
tolerates	1
fireplace	1
098	1
parched	5
exhilarated	1
rouses	1
internetworked	3
1752	1
scold	3
soaring	5
beholds	3
discomforts	1
demon	10
rummages	1
6238835221520814478940626889936085239827	1
adored	7
coaxing	1
architecture	3
curds	1
heels	10
sacredness	1
dauntless	2
superfluous	2
soothsayer	1
anytime	2
tribes	3
interpolated	1
mexico	8
0540070356131026040514507932592579822740	1
nears	1
9660712966443831479129635927542962712943	1
skullcap	1
broadly	3
momentarily	4
0798120465679532298635737458903165400701	1
noisily	2
hunters	11
tyranny	5
chants	1
autograph	2
minded	12
menaced	6
alleviate	1
worshipped	2
endued	5
afire	2
parthenogenesis	3
philanthropist	1
detailing	1
4349099449420750911108532138744823216151	1
7199539888680431991650866887781701439663	1
totally	11
scoff	1
sedative	1
kneeling	3
speculation	5
england	56
adam	3
slater	1
pronunciation	1
king	123
tumult	7
exceptionally	3
obstructed	3
resurrection	2
misguided	2
denizen	1
most	588
1789	1
persuasion	3
requited	1
transfer	34
auguries	2
phrase	76
bones	12
affection	58
rudely	2
sheds	1
fervour	4
morbid	4
courteous	2
3674361541081593464960431603544354737728	1
consoled	2
investigations	1
insert	2
0172351816715687541634849494912890017393	1
awaken	2
decorations	1
wards	1
database	13
tortoise	15
translators	1
stuffy	1
inglorious	1
4337788492834236361124473822814504596821	1
billion	1
patient	17
corridors	1
consummation	6
naturalization	1
biplane	4
sheet	7
bandages	1
7266031617527582917398395852606454113318	1
mentioned	12
destructiveness	1
opossums	1
accompanying	1
sheep	25
sam	2
ardour	13
muscovite	1
wheresoever	1
earnestly	14
questioningly	2
also	246
say	320
feudal	25
educated	12
mastiffs	1
flighty	1
cpet_user_gu	1
interruption	6
sportiveness	1
marooned	3
dkovacs	3
bides	1
sagely	1
4719016196335467707140905908269542251964	1
resk	1
hypocritical	3
pursuers	3
stripped	8
boys	46
alienate	1
drags	1
depraved	2
hangings	1
5233795630944144669822245702636711949328	1
ban	19
crowing	1
voicing	3
bar	7
estonia	1
neighbourhood	9
snuffed	1
rubbish	3
drowned	7
missiles	2
5438509396712991806747190988531271072672	1
harrowing	3
prophesied	2
afterwards	34
scs	2
molly	1
pursuest	1
hazardous	2
mishaps	2
3186480756083679551496636448965592948187	1
artery	1
seconded	1
astonishing	12
bbs	17
submitted	6
delay	21
1859504288390273549467266764750607264369	1
plant	8
disrepute	1
cabaco	1
jones	6
victorious	3
ascribed	3
1632261765485737667194313284005062629514	1
traits	5
scheme	12
wifehood	1
affect	7
admiralty	1
onerous	1
sea	107
coldly	1
slogans	1
amuse	4
see	754
inward	3
6610114334042144736834536384965447010678	1
civil	16
adjure	7
subsequent	7
audiences	5
wheat	5
mershum	1
2555573655708315032001908299209654549873	1
conquerors	1
seq	1
0400873769880687970380472234888258198190	1
2491579131394111486084164293479587936818	1
sixty	3
purring	5
askest	3
tremor	2
dogging	1
scowled	1
roofs	1
joined	18
founded	10
4847786573106608321730937680338217421564	1
wordy	2
8362289709959898340548496228428939846984	1
planters	1
afternoons	2
melvyl	7
bonnets	2
fighter	2
eyed	21
crevice	3
spider	1
practiced	5
3480382210373644697046967493042810911797	1
pillars	1
jun	2
deposited	2
beckons	1
excused	2
0591502507599239861122434031205699978051	1
ben	1
needless	2
denomination	1
spiraling	1
marriages	5
luke	1
helmsman	3
irishmen	1
9687528340516906974194257614673978110715	1
shunned	6
8943358691959604936409651570327527570641	1
unplastered	1
snubbed	1
3907083138030214072556753022600033565715	1
laborer	5
disadvantage	2
rigging	2
tilling	1
complain	3
canines	1
defenses	1
searched	10
minicomputers	1
2675424975710520894362639501382962152214	1
roasting	1
somers	1
resumed	7
witless	3
fades	2
debt	4
unaccompanied	1
preyed	4
visiting	4
distrusted	2
deletions	19
parity	7
stiffen	1
part2	1
1416928368190255151086574637721112523897	1
contagions	1
caesar	5
packing	3
gashes	1
related	22
unfair	2
diffident	1
rippling	2
tenderness	8
brilliant	8
living	75
practical	29
lowercase	1
sanguinary	2
false	29
wearing	4
2157054022744145218765419014283867442600	1
tatters	1
bales	2
firsthand	1
7th	3
equalled	5
frowns	2
cheque	20
unwieldy	3
realm	6
uttered	18
7104284598160899610194569164698383771826	1
2936507766465603712364707109272580867897	1
appealing	1
astonish	2
7949	1
rubbing	2
elaborate	1
grunted	1
mumbling	1
5546462439953539174322822543326717430849	1
thankful	10
2667904396142318529919891810655544124772	1
tirade	1
unfolded	6
talons	11
sich	5
cornice	2
slaughter	4
thanks	14
irishman	1
striking	15
inactive	1
convinced	38
corner	33
advances	4
timorously	1
methodist	4
fettered	3
obernut	1
crown	18
sentence	51
greystoke	36
screwed	2
inquire	6
mariners	1
large	121
surface	18
quenched	4
buffeted	5
chasing	2
smoothed	3
accents	8
tomorrow	8
spurted	1
assembling	1
taints	1
4149653944150138386874838487022468182939	1
grandmas	1
interiors	1
toothless	2
pharisaical	1
exclusively	3
john	29
2125941107957349146684680220501816192150	1
eugene	2
customized	1
desponding	3
cornhill	1
weariness	2
installations	1
weekend	1
professions	3
1257763244738945205163693858513648425996	1
undismayed	1
beardless	2
emerged	7
7715568874728845183810606903802652831827	1
0155443216861690537054630176154809626620	1
abhorrent	1
aura	1
finishing	3
inquiry	2
fissure	1
assented	2
prejudice	11
strove	8
angle	1
embarked	5
convicted	11
everything	60
urgent	3
guardian	7
congregate	1
0639888740474218669770934964775817368358	1
macos	1
italy	8
resisted	4
lustral	3
3577590825227466863206188376830450921784	1
side	213
thorn	4
break	44
0128170543067985261868949895004918275008	1
composes	1
clapped	6
massachussetts	1
joke	5
9639844137178140276412208764498968862979	1
deplored	3
likewise	7
bacon	4
whereabouts	16
multimedia	1
separations	2
corporate	2
candle	15
kala	1
thunders	3
steeples	2
improvements	4
overthrows	1
theirs	37
sigh	10
auto	1
soc	1
vertebra	1
saviour	1
orkneys	1
bragging	1
anger	20
posts	2
scramble	2
stands	17
pauses	1
proceeds	1
1919030423653156509574645496434253280695	1
2128768905459635863693448797497848411232	1
keepers	2
summarily	1
scourges	1
transgressed	1
sow	1
expressed	37
administered	2
awaits	2
glassy	1
paralleling	1
7667144727314254467923500524618849237455	1
obliging	1
sordid	1
beget	2
1751298979667073292674886430097398814873	1
subscribing	2
establish	8
colder	1
relevant	4
changeless	1
poked	4
withering	1
curses	6
consents	1
shuts	1
evermore	3
jeopardize	1
rambled	1
signification	2
parents	39
pursues	1
infinitely	5
herding	1
scores	3
auvm	1
mental	16
box	28
1459091064841642678309949723674420175862	1
tiring	1
decent	4
eminently	2
demo	1
nurslings	1
digitally	1
buildin	1
closets	1
tasted	9
kai	38
curbed	2
standoffish	1
cripple	1
attributing	2
console	10
plays	3
social	64
porters	11
wheel	8
discoverers	1
_nicene	1
8166521374717325477727783488774366518828	1
demanding	2
3649455505232518632241138840619125701291	1
drill	1
102	3
0748621551337503677558549413867835292827	1
ameliorate	2
convulsions	2
chattering	5
106	2
pageantry	1
5319932943296601822078793312232322592827	1
hereditary	3
explicitness	1
inflict	7
amel	2
mould	2
handles	2
lineage	5
lighthearted	1
stool	3
elbow	5
squalid	3
reread	1
baltimore	54
stoop	1
inviolable	1
buried	26
stood	155
intercourse	10
precept	1
6011346115980434147450705511490716640635	1
commanding	3
pilgrimage	6
animate	3
3113981109283158321693156386745974744958	1
guild	4
wigglin	1
eastward	5
113	2
encouraged	8
lighten	6
117	1
horrible	38
affirming	1
scent	14
draws	5
etext03	2
chinamen	1
exhibit	6
6833613038829431040800296873869117066666	1
0222338349090667655416833690795940940457	1
publishing	9
6778172979069471475901826482476111241455	1
extremity	6
browsing	2
yankee	1
inadequate	1
std	1
horribly	8
_alice	1
lusty	1
invokes	1
catchers	1
jeremiah	1
120	4
convolutions	1
bsd	1
yearning	2
124	1
detour	2
noblest	5
maliciously	1
128	12
plunged	13
hoggish	1
scrambled	4
pitchforks	1
5681242936427474153815692219503331560151	1
lessons	11
sue	3
painless	2
hind	8
dungeons	1
watchers	1
sum	14
pyramids	8
teeny	1
foretelling	1
extended	8
131	2
obliterate	3
5017924552067329003818814068686247959272	1
pitied	4
managed	12
spiderweb	1
postnews	4
copper	3
syndics	1
preferred	21
key	24
conferences	7
surprised	44
4970660925048187683551600371463868591891	1
stopped	54
silent	36
msstate	1
brutes	9
appraised	1
whirlwinds	2
jose	1
periodicals	1
orator	3
inconstant	2
headway	1
lighter	4
amid	7
sponsored	1
skylight	1
nondescript	1
merriment	1
stork	9
afield	2
1800	1
gallon	1
8721236436704331409115573328018297798873	1
instincts	2
brutish	1
rower	1
laughing	10
ugambi	45
available	105
abdicated	1
crotch	2
burial	10
excesses	1
indwelling	2
pocketknife	1
buzzing	1
hogging	1
1819	1
distinctions	6
fragments	3
written	89
wishes	17
unloading	2
noises	4
disuse	1
remarkablest	1
unusual	8
beaver	18
2038322781246413671297959415082918378213	1
satiated	3
delos	1
sink	18
reink	1
unsympathized	1
stole	8
reins	1
sins	6
bending	7
apelike	1
inquiries	8
especially	58
recursed	1
2392980098050894915107883711940997503754	1
hint	1
2919471325465199144188500672036481975944	1
sorrowful	11
sing	16
recklessness	1
1001772437840167723166802004162547244179	1
_get	1
7398245214732831721462190733049206081744	1
sublime	10
insists	1
lookers	1
2784457891869421492945154017421462324030	1
doing	66
basics	6
overseer	17
mortar	1
idea	102
adults	2
tartary	1
kim	1
1833	3
exterminating	1
discrepancies	2
179	2
6456291805905295974791266162882381429824	1
throughout	25
conflicts	1
funnels	1
virtue	30
collects	1
magnus	3
1958461065596332728348560957030557250249	1
2767881806762865097808571826211700314000	1
socialist	8
weaker	1
commemorate	2
_own	2
farthermost	1
passports	1
weaken	1
screech	1
drought	1
willed	6
passing	31
9961025096113761670187568525921208929131	1
nightfall	5
bluff	2
phrenologists	1
brent	1
maenads	1
reach	71
tested	8
humility	3
comparative	8
lightly	13
react	1
foreground	2
0832476793300404851688934411125834396590	1
dewy	1
1855	1
seconds	7
6947959645858044251949051107333876799467	1
1851	1
2590774886105493806116954293569077377792	1
jeroboam	1
children	226
rulers	4
3785326601858425689141091944645661626677	1
entrench	1
4833838054369880310983922140260514297591	1
chuckled	2
traveller	10
drivest	1
9509524527949914769441031612575776863713	1
longtime	1
gurgling	2
sirs	6
goal	6
collar	3
6433946990162698351607848924514058940946	1
demarcation	1
monsters	5
3809656004310586054835577394662503323003	1
goat	8
banker	8
bespoke	1
unloved	1
deprived	13
joys	11
5167348136472449021275252555647623248505	1
5618085970100800816225574550391013219819	1
1866	1
pitfalls	2
slithy	2
clothespin	1
headings	2
logging	4
sensitivity	1
goad	2
wildness	3
drivers	1
regretting	1
tableland	1
aggressor	1
spasmodic	2
plaints	1
sympathetic	1
gods	57
wear	16
unsuccessful	2
botany	2
gentler	1
shriller	1
underwood	1
wean	1
impress	10
leak	1
screens	1
recall	8
place	315
objection	5
coddle	1
sparingly	1
sickening	7
8357839017934997137909136967064976371272	1
deepening	1
1891	1
tremble	10
ascendant	1
averted	1
6678819020855957081118538361661288487295	1
tilbury	1
1888	1
comfortless	1
expect	25
site	83
tangled	8
hadn	29
6185851153508809998200482761808307209649	1
behaviour	4
apology	2
argument	19
villain	9
4414534380337597173847772320520653010378	1
3667280872414291108080291896093127526202	1
transferable	1
5492275811517093149218795927180019409688	1
howland	1
cooks	1
bustle	1
8139284916350748444907682838668747666361	1
condense	1
growing	34
clerval	59
stalwarts	1
1895	2
cologne	1
conspicuous	4
9753857795837279770297223143519995849952	1
indistinct	2
tal	4
officers	10
4656345602000256288960119110098045335042	1
notebook	2
tap	1
individual	103
appropriations	2
unobtrusively	1
chinaman	4
ugly	10
tax	136
steinem	1
continents	2
ranks	10
chances	12
6446988901247285192778589195228773637440	1
person	208
altars	5
files	117
8n1	1
6819867017786167267197237415691788000169	1
painstaking	1
paddling	9
ween	4
ferocious	6
3020994152152288611175126686173051956249	1
marvellously	1
guarding	1
drama	5
mated	4
paris	12
ready	60
prenatal	1
despond	1
laudanum	1
informational	1
5250069180267477250789589034488566730814	1
glacier	5
player	2
2688313289470553891357290706967599556298	1
unconscious	12
illustrious	2
satisfy	12
worldwideweb	2
songstress	2
fearful	25
distracted	4
bites	3
lyons	1
theseus	88
weavers	1
7906519612917777354183694676232982904981	1
feverishly	1
2827739043038687727282620656631293874598	1
bulged	2
file7	1
immigrated	2
witchery	1
4811782983494172116749194256016086853324	1
response	11
divest	1
clutches	5
abhorred	19
file3	1
misinterpreted	1
