5844390967248232348259587963698908456664	1
nicely	1
pills	1
hale	1
simtel20	3
plumes	4
rosary	1
nowadays	3
abovefiles	1
pollution	4
salary	1
pretend	9
4139865507522507808919352104173963493428	1
guards	15
wreck	10
roams	1
fastenings	1
rabbit	1
customs	7
triply	2
5883669487322411726504487268392328453010	1
2231877065395275783874454229129966623016	1
2445664891592113822588678809725643516464	1
scanty	3
crusades	1
tenderest	3
pict	3
smartingly	1
tuckahoe	1
gabriel	1
sniff	1
narrative	23
minicomputer	2
squares	1
scratch	4
carnival	1
_this_	1
conspirator	1
diffent	1
standards	6
galvanism	1
willow	1
2	212
triple	5
irritable	3
6	74
extracts	1
jackass	1
statute	4
slatternly	1
abductor	2
accessible	25
hang	6
role	3
hank	1
afterthoughts	1
stoning	1
turk	10
southerners	1
2595690328869282912601392675878582847655	1
7252126542502898612259306484105898847129	1
example	35
characters	20
opposition	12
corners	2
same	319
selfish	7
stirring	8
5772348420077356021656909077097264985642	1
galloped	1
2128847409929537040546962226547278807248	1
connect	37
rational	4
barbarously	1
policy	17
reigns	1
napoleon	2
b	74
rowena	1
salt	27
familiars	1
shingled	1
f	197
benches	1
impassioned	1
1010	1
j	13
centralise	2
cataloguers	1
eating	8
blood	128
beliefs	4
neighbor	10
n	15
rattler	1
straight	48
entering	16
unshipped	1
r	10
genuwyne	2
police	11
throw	19
v	8
tropics	2
sunset	8
thank	34
z	12
regain	4
dogged	2
waggoner	4
accumulated	8
6100870250132945332535804568928570724120	1
november	13
forsooth	5
keywords	2
vaccinated	2
arnot	5
tic	1
neighborliness	1
pinioned	3
suffered	46
scholarship	1
tis	78
tush	2
shipmates	1
owes	1
fantasy	2
unchecked	3
unhappiness	5
1969927603719476019128667430861521724304	1
skimmin	1
onto	4
frustrate	3
palpitated	1
arbiters	1
bursting	4
enjoined	2
hark	6
ascend	6
hungrily	2
disturbed	14
raging	7
waganwazam	4
wiliness	1
rope	37
inmate	1
earthquakes	1
unfulfilled	3
tripod	1
muster	1
nowhere	10
ascent	4
comprehensible	1
flannel	1
denmark	1
shovelful	1
motive	6
kindest	3
provides	16
shrinks	2
postmaster	3
patiently	7
root	11
webster	3
patrick	2
tutorial	5
tranquillize	1
fluffy	1
clarinet	1
pasture	2
assaults	3
effectiveness	1
wheelbarrow	2
headers	3
depriving	1
0050195045201350200180281506933241918267	1
expatiating	1
windsor	2
cheek	13
blocks	2
swords	3
realized	39
concentrate	2
2737780213652404028817217012490974899454	1
magnet	1
ranging	2
haggard	2
7671880076124151967064152117653084325544	1
reuss	1
poignant	4
discomfiture	2
creeps	1
well	543
3602604789076194559182028936577011641688	1
xerox	2
bereaved	3
pile	11
5584747515162678153094655412405240916638	1
pioneer	1
conjecture	7
fearing	9
loved	74
discharged	4
gained	28
flashing	3
exerting	2
fierce	24
oppressors	1
wastrel	1
hate	39
sass	1
straddling	1
flow	12
promotional	1
cordial	1
order	68
undignified	2
reminds	2
carrion	2
consigned	1
cobweb	1
pressed	15
0153084180417376989637590025469994541316	1
hast	57
propose	7
reformed	1
philosophers	8
daylight	20
inted	2
prohibited	1
razor	1
coach	4
managers	1
women	270
legislatures	2
pink	10
4012695458637642206509781085290763907972	1
tintern	1
woman	211
successor	1
6334550102286170517890440570419577859833	1
2789834328957841696889075623746728104480	1
ping	1
1087	1
leaked	1
toe	1
shutting	5
swaddled	1
folk_music	1
wreathed	1
tom	306
conjunction	1
howbeit	2
honesty	4
noise	33
0098846231828512448393059455162005455907	1
assemblance	1
5436	2
gesticulated	1
4109	1
4622839007354571445964141082292859222393	1
jagged	1
toy	2
cni	2
energetic	2
5817395581981223970100920172022516063529	1
taller	1
adultery	3
question	81
wept	23
scepter	1
tappan	1
remedying	1
noisy	3
picture	38
creed_	1
warmer	4
walks	24
7929877487841615163494973097007943683050	1
confided	4
cob	3
thousand	87
paupers	2
fuel	4
hostile	2
yelling	5
4264818473989215627086095650629340405264	1
arrows	7
translated	1
upon	979
employee	23
madman	7
expeditions	4
7492133166316281245638823828871564844788	1
pray	29
pacify	2
homicide	1
bugged	1
unaided	3
wayfaring	1
peacemaker	1
contemptuous	1
quite	188
grisly	5
circumspection	1
pipe	13
hated	17
precluded	2
las	3
frontiers	3
pigeon	1
ceasing	2
law	118
clones	1
piccaninny	1
roun	1
coins	1
lest	20
pardon	9
taboos	1
plenty	42
summarizing	1
christmas	7
7334336638475659094972822180941868407423	1
200	3
peddle	1
obligation	7
catalogs	5
ceremony	12
desirous	6
rougher	1
anatomize	1
taxation	2
1559651222542929154212923108071159723275	1
wending	1
environs	5
immovable	1
university	40
unclaimed	1
exterior	3
overhung	6
troop	3
unwritten	1
saleswomen	1
renowned	2
daringly	1
8081265539973675916799759010867483920062	1
times	104
teacher	12
salads	1
debtor	1
vacillating	1
8579406525539141041497342780203520135419	1
coolly	2
cowering	2
knavish	2
bettering	1
wounded	12
capitulate	1
affrighted	2
bachelor	2
laughingly	3
necklace	2
cry	47
unwholesome	3
mcgowan	2
0363893131364327137688841026811219891275	1
222	6
1697459750385168871120377476315773118313	1
merchantability	2
226	1
pedantically	1
spoken	23
unfamiliar	5
productions	3
incident	11
7110220353727166112304857340460879272501	1
lingered	4
cluster	3
prey	32
ftphost	1
japan	2
superheated	1
tug	1
fullness	1
1225946002339947222817105660393187722680	1
solemnization	2
concert	2
unconcerned	1
pity	33
arousing	1
leg	19
whippers	1
233	1
eventual	3
pact	1
adviser	1
worker	2
scolded	2
cares	9
environmental	1
carew	4
regretted	2
swells	1
jackal	2
9381151373227536450988890313602057248176	1
beaufort	7
watchful	10
_always	1
244	1
lewd	1
offering	8
curing	1
untamed	2
stereotype	1
reacted	2
thirty	34
cup	15
sweeping	3
1329160019888063691276474165670674854907	1
ungazed	1
perfectly	51
cut	53
warrior	14
constitutional	1
masculinity	3
dread	48
descendants	2
warmly	5
chemists	3
desired	44
tear	14
wanderer	5
moody	1
9849646510582093923982948879332036250944	1
1268031418456268722581132040056433413524	1
situation	32
inclination	2
8563	1
think	245
participate	6
thirst	17
4343761652415687179435625702156366666800	1
mccaffrey	1
accused	11
6869871772552265257084287457330398597442	1
absolution	1
services	72
jungles	2
_love_	1
haughty	1
forfeited	2
versa_	1
perplexes	1
speech	40
laboring	1
misspellings	1
enslaved	5
detained	1
7072315968334322509070204019030503595891	1
clan	1
lazying	1
thing	288
forsworn	1
demanded	21
insurance	3
surely	55
privileges	2
shapely	1
dazzle	1
thigh	2
megabyte	2
marring	1
ligaments	1
domestic	8
1931	1
forcasters	1
sublimated	3
shook	42
paying	46
workin	1
separation	14
vitality	1
slovenly	1
traversed	7
donation	21
exorcised	1
sullenness	1
acquired	11
tech	3
radiate	1
pathless	1
actual	31
involves	4
prosecute	2
jacket	4
pervading	1
enlisted	2
surprising	8
twiste	1
technologies	2
pecuniary	1
boilers	1
8045704038082077035738758852597604243460	1
mockery	10
converted	9
sumex	4
district	9
ballroom	1
alarmingly	1
ewery	1
whereof	2
halls	5
9916775183768315998212632371238543573126	1
socialists	4
pepper	3
destiny	17
away	379
motivation	1
stubbornness	3
mice	6
grossest	5
scorned	2
progeny	4
bridecake	1
prometheus	3
beefsteak	1
enhance	2
pain	61
waning	1
appropriately	1
goaded	3
0147619679971490141639274282889578424398	1
start	97
enlarged	1
stumbled	5
pair	22
restorative	1
wiser	8
detested	6
shorn	1
plainpalais	3
cooler	2
3363921499441937170268576222251074166230	1
moderation	2
snugly	1
9680108789949050665449154457795216603855	1
tavernier	1
phocis	1
1620437614116166881281782923823112217458	1
exacted	1
verses	1
finance	2
studio	1
measured	13
downward	7
keels	1
abreast	3
funnel	2
recoil	1
palm	5
interactive	4
nicety	1
imagined	28
acceding	1
three	224
3831307489724550572908568849609134632316	1
cudgelling	1
forums	2
5615684850391995855029256054176767663145	1
plumb	3
payable	3
crumpled	3
1971	6
mutable	2
payment	5
specifically	2
catalogues	6
eddies	2
pale	24
restoration	2
gallery	1
semitropical	1
flowery	1
barkcloth	1
players	3
6895155696868993848964391952252323097033	1
destroy	70
piled	8
railways	3
pennsylvania	3
coast	26
9659291850294013160065112439529787436422	1
1982	1
serried	1
bids	6
addison	3
sectarian	1
freelore	3
afar	3
9720817046135376163584015342840674118587	1
7718910793524323432276178771256825112648	1
requires	21
primary	4
remissness	1
pans	1
submitting	2
inhumanity	3
whereon	2
smileys	2
shoveled	1
6048713423704295727578625493659178054016	1
translator	1
bright	41
abating	1
3512829905040540533399257707132101150371	1
anti	15
unknown	33
glasses	14
skiffs	1
1997	3
stereotyped	2
dona	1
pros	1
wakefield	1
wholesale	6
1993	23
angels	6
overstates	1
solidarity	1
manners	26
bloomed	2
billowy	1
pang	4
prow	2
means	218
survive	28
fury	18
hereabouts	1
rudimentary	1
6142685922138993054980645399144588692472	1
discourses	1
baggy	1
8404956639919591540342183645372120236786	1
imprints	1
transversely	1
babyhood	3
faultiness	1
fetch	23
plebeian	2
evading	1
satire	1
9576625721762186047457376957764958220179	1
_with_	2
commanded	14
door	134
audibly	3
speedy	3
erro	1
possession	42
silken	3
7531630556544407934278765502673012145783	1
experience	58
launched	7
shores	8
0768495583288190293564201219633684854080	1
suspiciously	1
squarely	1
italia	1
outlined	2
shows	4
prompting	2
haled	1
papa	3
audible	3
ucd	1
disappeared	32
pointing	18
keeps	8
necessitate	1
accustomed	29
6873142522526017958897591162387208075805	1
trumpets	1
womanhood	2
jewelry	2
drinking	9
adept	2
sparks	1
toned	1
taciturnity	1
mildest	1
moons	4
wharves	8
teller	5
anchorage	5
done	205
illegal	1
unborrow	1
pause	14
striding	1
stays	3
whiskers	4
rainbow	1
6804857302606467764258503301836174306413	1
graveled	2
interlocked	1
babblement	1
surety	1
entertain	5
ease	35
disks	1
deuced	1
mike	1
mathematics	4
templeton	1
grinding	3
insulted	2
elsewhere	14
banished	15
jealousy	4
judiciary	1
paddle	16
principal	26
perpetrate	1
inducement	1
mumble	1
equitable	2
2400	11
nicest	1
sourly	1
faintest	6
9884514141469311719314272028007223449941	1
dated	9
exotic	1
affirmed	1
endowed	9
introduction	10
thither	9
park	6
editors	1
carbuncles	1
whereto	2
erst	2
washed	4
revenge	46
subscribe	30
built	30
browsed	1
thesaurus	2
seeking	13
capitol	3
economics	1
someone	26
build	12
earl	3
wireless	7
interfere	7
apartment	11
cheerless	1
bucked	1
condign	2
dec	8
matrons	2
instigate	1
areas	1
preached	1
foundered	1
compassion	12
sires	2
stunning	1
conducting	2
avidity	2
crack	7
finds	9
depending	7
surged	2
evolves	1
telnet	45
pate	1
burghers	7
contradictions	2
sketches	3
journeymen	2
dew	3
scanner	2
examining	7
chicago	2
adjudicate	1
headman	1
accepting	20
prejudices	8
fined	1
encircling	2
going	164
past	84
shock	16
whoso	5
8777180525029079164541479117361625315584	1
spearheads	1
committees	1
dorm	1
tributary	6
easy	80
6698683703730220047531433818109270803001	1
3955196426039744382987482232266203635286	1
1106	1
almwroth	1
2433	1
flocks	4
omitted	8
adopting	1
assigned	2
reverting	1
adult	1
reassured	3
attitude	13
touched	29
thessalian	1
profoundly	6
dout	1
virtues	16
4772148212815760727530517333096345590932	1
existed	10
transparent	2
cdouglas	1
mint	1
dove	2
grass	11
brag	1
annoyed	4
volcano	1
mind	256
watchwords	1
grateful	9
thankfulness	1
oxen	12
astride	2
unwillingness	1
uprose	1
constrained	3
recollections	4
redressing	2
philosophically	1
stage	21
lucerne	2
returning	34
inch	11
waiter	2
phrases	3
richest	3
concocted	1
dialect	2
dig	5
collaborations	1
perdition	5
happiest	1
besiege	1
cheated	5
down	474
divisions	3
dis	13
plurality	1
wretched	36
depravity	4
passport	1
confusedly	1
2466	1
philistines	1
0638604319889362498676496935925695921284	1
forgotten	25
technologists	1
club	2
dispensing	1
pulsing	1
mutterings	1
info	27
inconceivable	4
chartered	2
test	6
anise	1
4299136575024601278751411794490130580345	1
merchantman	1
5780031580372555541017846186347869064604	1
4695018462140736493917366254937783014074	1
conviction	19
blinder	1
brown	21
interfered	4
publicly	4
inventive	2
trilleth	1
greets	1
imbibe	1
puzzled	16
pretentious	1
final	24
tackle	3
anesthetize	1
acres	2
8237904821605621009426507617383808247903	1
squeeze	1
sheeta	93
recommence	3
training	18
swaying	1
barbering	1
optics	1
states	339
undershirt	1
conveying	1
delights	4
embittering	1
progenitors	1
load	19
plantation	37
doorstep	1
houston	1
ferry	2
umn	3
busily	2
ignore	4
doze	1
hemisphere	1
nuclear	1
originals	1
lacey	9
feasted	2
2255162155107179460621892674335641960083	1
billions	2
spelling	3
tranquillized	1
energetically	1
length	67
blessed	18
unc	2
squirearchy	1
babe	6
gnashed	4
6346444770067871310668324178715562817791	1
5188169480322100251542649463981287367765	1
shinning	1
7022923174333449998690184151088899316512	1
tenths	5
baby	64
fiendish	11
append	1
overboard	4
lunch	3
7313208708645522367404161855907938167456	1
deplorable	1
triumphed	3
9039475168017709900129391137881248534255	1
3782829712054469318226040167030853091165	1
netfind	4
orter	1
conciliating	2
2726354601912460800451608108641835539669	1
exasperate	1
whereat	2
goodly	3
pkzip	1
deems	3
slamming	1
4809435794073212660124507966137894422084	1
calamities	3
feat	4
halpin	1
unwarrantable	1
inferences	1
inspecting	1
printer	3
inadvertent	1
bits	15
sense	107
brew	1
inorganic	1
upi	1
jesus	3
field	57
contents	26
4698126752265956210093183220817546947788	1
3616907056148280980363243454128229968275	1
0690110456227579220926904132753699634145	1
curse	40
wilderness	7
realities	3
doe	3
fewest	1
whereby	6
bewailing	1
divulged	2
status	82
encoded	2
nobility	8
unpolite	1
thief	8
extraneous	1
calmed	4
comparably	1
stamped	7
bands	4
mab	1
mention	13
6431489032333739267634091155271897684298	1
silences	2
sheepdogs	1
cult	1
legally	22
legislator	2
1929000745209895959201159412324102274845	1
leggo	1
obtruding	1
coalition	1
accumulate	1
crime	48
dwarf	1
man	1106
stand	82
surround	7
disappointments	1
mar	3
overheard	1
pavement	3
7104569019191359062304102336798080907240	1
frankenstein	32
supplied	5
peaked	1
8761394806879080593531793001711000214417	1
rhea	1
pilgrim	1
cabbages	1
cultivation	10
respited	1
prostrate	5
7651310277926279743981957617505591300993	1
ebook	231
scaffold	5
darty	1
comings	2
303	2
princes	6
agonies	6
comparable	2
feet	101
bait	2
certifying	1
feel	135
nursing	1
bail	1
effusions	1
arrangement	10
esteemed	8
310	1
curdling	2
314	1
concentrated	9
unavoidably	2
7644624432920590683290188669240022239191	1
vcrs	1
pledging	1
stickers	1
residence	16
0745833068686623130915578000596652273618	1
alter	13
waste	20
5863232312730890986156077738600698403526	1
bearing	19
8257618964374464656819789319422077536824	1
equipment	74
unavoidable	3
conundrums	1
streak	4
interrupted	10
attains	1
feed	15
clayton	75
woes	15
fences	1
compass	9
background	14
bloodstained	2
9757715081084944350828545874991294385756	1
busier	1
329	2
nonetheless	1
waitin	1
3068868305846508082886614111979138822898	1
ushered	2
fidelity	1
blindly	3
pathetically	1
commended	1
men	451
hither	17
vampire	1
justification	2
mer	1
make	422
blurred	2
obernuts	2
unscientific	1
thenceforward	1
opposed	6
toilsome	1
_darg_	1
winked	1
waving	2
hummock	2
darpa	1
depicted	2
thread	1
admittance	4
puffs	3
ux1	3
waken	1
fright	9
orange	1
stake	9
disquisitions	1
constituency	2
1898635282709231304708921568475820775303	1
ripen	1
conform	4
protectress	1
dug	7
lightened	2
7077635559869284901628768699628053790181	1
threat	18
taunt	5
invention	1
whoopjamboreehoo	1
02	5
prancing	2
woke	11
curb	5
350	2
stripes	3
temperamentally	1
observer	2
presidency	1
consummate	3
blissful	2
whatis	1
reassure	3
scornful	1
drawing	23
bane	9
orbit	1
murmuring	1
13	17
sjurist	1
6000	1
flourishes	1
17	20
engrossed	2
7526850823075442545993769170419777800853	1
9499254527903372963616265897603949857674	1
invent	3
wonderful	40
9227643289360535947903046811114130586348	1
substantial	1
flood	9
foreknowledge	2
priestess	1
365	1
dranet	1
hocus	1
proselytes	1
7081854894287737618991537664505164279985	1
impatiently	2
shuffling	1
southwesterly	1
allies	9
20	45
24	11
quietest	1
28	10
participated	2
experiments	3
lone	4
1639483978119866155851962164876959363989	1
industry	46
eliminate	1
1st	2
partition	1
overtaxed	1
ungovernable	1
gazes	1
shamefully	1
_hide_	1
1k	1
2383757380428200735858693804433152925312	1
31	11
destruction	33
dirty	4
35	4
6022	2
bother	3
star	7
wolf	42
39	7
auditor	2
unpurged	1
slant	3
4633863305788748740554000544043934488819	1
infallibly	2
controlled	3
leftmost	1
seduces	1
texts	18
inspire	8
associated	154
bureaucracy	1
5747483628461680936365097379090020411852	1
stan	6
troubleshooting	2
vagrants	1
42	8
open	101
scaped	3
bara	7
treat	16
46	1
berry	1
starving	1
hysterics	1
cleanly	1
yelpers	1
numbers	32
expressing	2
eclectic	1
nakedness	2
sunburned	1
loon	1
tread	5
398	1
whacking	1
roughly	8
4943180498341996399814587734358631159405	1
infallible	1
bare	30
53	1
admitted	21
57	5
invert	2
cautioned	1
solutions	7
seeds	4
uneasiness	3
8779467131210427633808726957386093146315	1
owing	11
wont	11
bridges	1
gardener	3
crushed	6
sections	21
exasperated	2
5627827759878813649195125748332879377157	1
immutable	6
korea	1
fabrics	1
murdered	36
downwind	1
nuts	10
paths	11
84116	18
60	21
charmed	6
whizzing	3
trimmed	3
eccentric	1
64	20
romans	2
68	2
defer	1
6472204989445629050395873788912680565516	1
polly	18
befall	10
lore	3
ranges	3
twix	1
revoke	1
despicable	2
peculiarly	9
drearily	1
8134002845552513917355978456150353144603	1
apple	5
interest	85
5k	2
themselves	110
marbles	1
twit	2
71	5
sleepy	1
75	9
79	1
windowing	5
patron	3
selectmen	1
barbarian	3
apply	37
mart	2
huntress	2
staked	1
flatly	2
marx	3
mutinying	1
histories	2
ethereal	1
viewless	1
upreaching	1
8631863528708379984569261998179452336408	1
layout	1
prints	1
1259293668405913700595269149344218618917	1
strutting	1
rapturously	1
riches	5
starves	1
formula	2
82	4
dewey	1
86	1
comrades	4
resided	5
0817386959755176083877600277517253037133	1
4416337066573150237126843581984154103154	1
irretrievably	1
squires	3
fingers	23
nonproprietary	18
reliable	3
elevator	1
8480987196414308514687852503312898931950	1
kerrey	1
premises	2
stomached	1
93	6
preliminary	3
97	6
7971578964015542768810904758995646054883	1
blends	1
attempts	9
baud	13
1148520549336793686843083240412678922092	1
state_	1
6627704793332893221361418587859727716856	1
relating	3
worl	2
utilization	1
skulking	1
6744736341369846732852260557012645012334	1
packs	1
books	48
3246608428753518483649591950828883232065	1
priceless	1
8804008455133279516284128067967896557016	1
4276836558267067663139119722118115284665	1
betsey	1
haggled	1
duction	1
1537278435539862440158564886921016447816	1
viper	1
sence	1
3742054978566598954690899385589184410856	1
nymph	1
word	197
9950161091272081791353240678426716179201	1
irretrievable	1
love	203
94302	1
internetwork	2
healthier	1
hovering	1
corisian	1
watchdogs	1
3682664135541448048997721373174119199970	1
ourselves	44
carest	2
punch	2
lout	1
naturally	26
accosted	2
0865536474517565487931892564408527448919	1
4630467726914552953690154167025838032477	1
unfashioned	1
1879339076142074670288679685949854397894	1
identity	15
ear	24
installation	3
congregation	1
excursion	2
explosions	1
europe	11
7097501739683121449335729079164877991508	1
counselled	1
loud	25
unstuffit	1
repent	5
bygone	1
stint	1
whome	1
destructive	6
hunted	24
degenerate	3
opinion	23
mrs	27
lots	14
insisting	2
alexander	5
soldier	5
philpot	2
devotion	12
hotly	5
unarmed	5
rudiment	1
phantasies	1
stir	6
voice	128
aliases	2
allen	2
existence	87
amendments	2
minion	1
newsletters	8
crags	2
_is_	1
journeyman	1
feud	5
irritability	2
7216055461439677336258462997385077307751	1
thinner	1
parlor	1
5851180630364428123149655070475102544650	1
cleaner	1
peruse	1
capture	5
may_	1
excite	4
rushes	1
cavity	1
3840626612195714191106324606177418057721	1
gophadm	1
disappearance	14
literate	3
bowsprit	4
recruit	1
edu	103
5527822224643912259265192128844696110746	1
demeanour	4
_ye_are_bound_to_tell_	1
indigo	1
epochs	3
unseasonable	1
seducing	1
fomented	1
insure	2
clouds	22
elder	6
daulis	1
enmity	3
0276166958278982913613535306291331427881	1
billed	2
9093238118295411937545448509428621839424	1
superland	1
crudities	1
briskly	2
spend	21
methodical	1
sweetest	6
7166448069815483764491573900121217041547	1
distances	2
9433090683667110655953338602938000999949	1
sardis	1
overfeed	1
spent	51
assistant	1
instead	60
chisel	1
controversy	3
ultimately	5
winced	1
attacking	2
anticipate	3
locus	1
imparted	1
irritated	2
standstill	4
providers	17
leading	12
sacrament	3
handy	5
branch	24
via	20
8205467856711479730650770354756205674283	1
1340512737557039180682234471816793932912	1
amain	1
saves	3
uiuc	14
enclosure	6
1212	2
doctrinal	1
famine	4
gallons	1
vii	3
neat	8
liberals	1
pedantic	1
because	238
transcendental	3
moving	36
shortest	2
marched	5
ragged	5
agreement	330
flatterers	1
instruct	6
dealing	4
inviting	3
agreeable	11
complainingly	1
7578437917900480884802302930439263092134	1
7103904977731200424357811579042982304507	1
hindostan	1
inspired	11
dyer	1
bronze	5
sepulchered	1
malcontents	1
8971774811216784160854454400190449242294	1
staunch	2
stop	34
minnesota	4
basest	3
whirring	2
ensued	3
derelict	1
protracted	1
agreeably	2
unused	2
glimmers	1
fared	1
indispensablest	1
taxicab	5
2305860332060641949298931012423081105800	1
interprets	1
ein	19
immediately	50
drilled	1
7156274295763666959661983507435667132218	1
swede	34
1958410292525685365618131387840864771470	1
gazing	17
sleek	5
antipathy	1
elevated	8
9123261956462149376527526356402127388765	1
rumbles	2
vm1	3
behavior	5
fulfilment	3
9118024936605179148533042104389977301926	1
descend	6
centrally	1
decreased	2
absolved	1
representing	5
wyoming	1
withholds	1
darted	9
descent	8
2573965950289645637766038988037941517917	1
perceptions	1
upside	1
pathway	4
loxias	4
communism	13
slav	1
lease	1
curried	1
brandy	2
addressing	7
legalised	1
screening	1
generates	1
bitterest	5
errand	8
coutts	1
amity	3
jerking	1
signified	2
historical	21
inwardly	1
suspense	7
polygamous	1
whirlwind	3
unmoved	1
layers	4
mutineers	4
doffed	1
imperfectly	1
doeth	1
justest	2
whales	4
artillery	1
surrender	4
eli	2
beavers	1
need	121
photographic	2
forbidding	2
caste	1
originally	8
1274	1
often	179
abaft	2
jail	18
newspapers	7
mayst	1
sobbing	1
volume	8
energies	5
transact	1
canada	4
loose	52
roadster	1
blazed	2
ecstasies	1
loathsome	6
indignant	5
useful	34
rises	3
thorny	3
unsolved	1
liberally	1
6579790379775050314364746514224847688313	1
1855966904855946760796819016726663465018	1
2437478902689351739040432948516106597858	1
dripped	3
2706781490035025287682360782210739710233	1
ismenus	2
snarling	16
breakfasted	2
strand	2
3267501532435909029491516973738110897934	1
1321913606812965756858361177456465467486	1
engine	3
irritate	2
responsible	5
linen	8
bullet	4
2779333865664816277251640191059004916449	1
selecting	2
forty	24
vow	7
mistake	17
capitalist	2
chased	3
1527453161230316570584897431620983140132	1
cremation	1
dakota	3
capabilities	1
6823664946401177803776799157180146386554	1
wouldst	22
toil	23
1296	1
chiefly	12
noted	12
contempt	13
crooking	1
royalties	40
airplane	1
visited	25
detected	4
calmness	3
aloft	5
swear	15
shaft	3
atmosphere	8
career	12
wanting	10
rife	1
springs	5
5234302680814869781648243493534568558436	1
abiding	1
nationalities	4
marveled	1
turns	12
mating	4
aspire	2
tried	89
brethren	15
urns	1
collins	1
sanely	1
deepest	7
luxuriant	3
ague	1
abominate	1
jane	142
islander	1
callousness	1
seventy	4
nay	33
tackled	2
forte	1
wives	20
crossing	12
parnassian	1
repays	1
compose	5
graves	2
4155478105541780367735533544670303264696	1
roller	1
tone	18
persecuted	2
intersected	1
debility	3
representations	20
cell	12
pouring	9
manufactures	2
sublimity	1
melville	6
savoy	1
indicates	1
emasculated	2
elegant	1
shadders	2
0168159779700664883944824463322109283205	1
downpour	3
0106427698596232604018637335728466795312	1
television	5
stores	4
grasshopper	7
holdeth	1
nichols	1
untroubled	1
gzip	2
rankling	1
sharp	23
unrelaxed	1
bushes	3
temperament	2
shingle	1
unburied	5
kadie	1
logic	3
talaos	1
gigs	1
quench	3
deferring	1
7965919809225550560061971283541270202072	1
shake	11
1531981987106161098503757589655767289040	1
honor	27
tops	7
seaworthy	1
degradation	4
9997495267988010745764665383774004374636	1
remembrancers	1
vibration	1
6860968968464085833413101785814271095541	1
aerial	3
trial	22
diskpack	2
exploitation	12
whites	18
constancy	1
updating	1
circlulated	1
hermes	2
bureau	2
entrance	14
motley	2
5045030043150967985881118969505373356710	1
wielded	4
donned	1
8976400282764841416058720618418529718915	1
intense	20
1811824937995404770083693488892209638142	1
shaky	1
humored	1
charlatan	1
7003711618294859399311999550704553811967	1
remedies	21
woods	38
articulate	2
positions	2
disdaining	1
duality	2
breasts	3
tony	2
traverse	3
intervals	5
gibes	4
0713218053398882813934604985053234047259	1
rigorous	1
steeped	1
unimpaired	2
substituted	2
races	8
tribe	32
inspirit	1
individually	2
1270010760912281528326508984359568975961	1
5780611015522102244866332471843670355023	1
strenuous	2
inconvenience	3
mercilessly	1
shading	1
boundary	5
unexpectedly	4
dispelled	1
_wendell	1
raining	1
paddled	4
respective	1
gushed	3
slot	1
dreamy	2
6426629226145600433738386833555534345300	1
unscalably	1
religionists	1
promulgated	1
exalt	2
cephisus	1
spies	2
cookman	3
457	1
influences	2
shams	1
tore	19
7772608484629618955073085069806150028143	1
tokens	2
8554711685248105599915744415515074312144	1
render	22
scoundrels	3
declared	21
haven	19
biscuits	2
2414019075468160777097792057938389537819	1
1584333617772925806111591920084140918881	1
anathemas	1
antelope	2
6103	1
endeavor	8
4975654930790973385418558351578940981400	1
adjacent	5
enrage	1
9304578831285417470790597959094316277223	1
specific	27
rolls	3
muggins	1
pounding	4
teased	1
complying	54
plots	3
obtains	2
revolutionised	1
sowed	2
nereids	1
fender	1
inherited	5
whisper	14
appetite	10
tarrying	1
flare	3
merrily	3
epithets	1
9866399561717108991180985119761648649923	1
shift	3
4385282701658246192092219529134323496779	1
angrily	4
bargain	6
martyred	1
securities	1
skills	5
exe	3
java	1
accusation	5
differently	5
borogoves	1
9618829452917136294096759250763134863660	1
supplications	1
subj	2
3422447765584177886171737265462085498294	1
cheers	3
fully	31
hurdler	1
dissuade	2
pearl	3
waves	22
eliminated	3
models	3
lonesome	4
journeying	3
primeval	4
personating	1
anticipations	1
patches	1
degraded	8
rents	1
peirithous	1
fearfully	4
cern	4
dictionary	3
cerf	7
deposit	1
widened	1
1125588453729063224423222287139122012248	1
dissipate	6
deserved	5
rotten	1
associations	3
disturbance	3
complexity	1
argued	6
herod	1
nets	12
plundering	1
pounce	1
nobly	3
4032799404016800137293477301530941805070	1
scrawling	1
knack	1
unreservedly	1
eudora	1
waterfall	2
obeyed	7
ingredients	2
mournful	7
insane	2
cemetery	1
protested	18
bared	8
cropping	4
5823435303728330950372902242980276845155	1
lothario	1
alternatively	5
horror	85
brooms	1
slumber	10
9453403245984236934627060242579432563660	1
fluctuating	4
2054427939636675910412682184337501574306	1
fortunate	21
irresolute	1
classic	1
embroidered	3
murrain	1
5701782303809656788311228930580914057261	1
technological	3
4650684481395616672207292612101646923390	1
scovil	1
supported	9
dwelt	7
featured	1
slur	3
administration	9
swung	18
mauled	3
abridged	1
objections	4
dwell	14
philip	1
microsoft	9
9208952182644710514911419441192277010977	1
pequod	11
betrays	1
lifecycle	1
incomplete	26
sounded	5
furniture	6
stalked	4
sutra_	1
menacing	7
1499197980812095692195622632313741870979	1
sovereign	9
occupants	8
4790761532103872755712699251827568798930	1
hugh	21
imagine	25
endeavours	8
town	85
thracian	2
whatever	47
glossary	4
untaken	1
servants	29
surmise	4
amphitheatre	1
ignorance	14
museum	2
deposed	4
5122105105209083470744398613782908235277	1
ugliness	2
farsightedly	1
9399269744676323921370773991899853301483	1
beheaded	2
involving	1
crocodile	9
bline	1
naturedly	2
hidden	32
shivered	5
classes	25
2163068709634119751925774318683671722139	1
2204107059927888926774575208428752637798	1
agatha	22
button	13
aspired	2
5249526968537631443799834033694712444724	1
now	821
topaz	1
voiced	3
wad	1
undoing	1
4206622734786822303652201965572932590506	1
eddying	1
sickened	7
3717465670504744152802771254156940136586	1
postponed	2
thoughts	71
pinch	3
2922492930773193930979545287741245118395	1
refreshed	5
disenfranchised	1
2296443172635875245486075630206676569423	1
hoisted	1
realization	3
wax	2
preening	1
sensation	17
ensured	1
summons	15
obsequiously	1
urban	2
droop	1
whar	1
timely	3
hurled	12
delivers	1
discard	1
plaything	3
prized	5
quickly	77
attentive	4
4009492820943862994618834790932894161098	1
4557597520262477124279622598327840583358	1
when	1257
issues	13
etre	1
synonymous	18
excluded	4
priorities	1
logout	2
hatred	25
unaccountable	4
fam	1
contorted	1
logged	5
pricked	4
faq	10
alliciana	1
struggling	12
taxed	6
goodwin21	1
panegyric	1
6510020265437126004664193554616583894595	1
guises	1
9582960291074690160945128845655007145809	1
suicide	5
tunneling	1
comfortably	3
horrid	26
survived	3
2787514320295639329591050834968702906069	1
1442641660181385990017417408244245378610	1
lowest	8
veal	1
uncontrollably	1
invasions	1
chickens	1
imbue	1
nursling	1
commerical	1
comfortable	33
utilize	5
fagots	1
pythias	1
institutes	1
inhabited	10
uncontrollable	2
completely	17
cravest	3
choicest	3
unaccountably	1
browse	1
lyin	1
searchers	1
widger	4
liege	7
villainy	5
differences	14
1992963117195821262627236458009708099166	1
youngest	6
7096793935463639644813902571176805779975	1
pensive	1
blackening	1
housekeeper	1
6382213521383977913844332564428849087291	1
burned	15
arabia	2
5060075436552575890554655240210341286212	1
spaniel	1
visibly	8
wed	8
tragic	2
_voting	1
physician	4
amazonian	1
quaint	3
collars	2
pirates	1
comical	1
grip	5
4341587814634602169235079216111013148948	1
grit	1
wet	12
cosmos	1
tentative	2
meanings	1
entrusted	2
unfriended	2
cornfield	2
shirt	8
discoveries	11
thenceforth	4
songs	14
pleased	42
1634559719444199434462476112384461761573	1
width	1
behold	41
superhighway	5
mourned	3
certain	127
preside	1
board	45
wondered	15
widow	2
assortment	1
retrace	1
uninterested	1
ravines	1
fee	162
82psi82	1
tincture	3
5257149045432792519079400711150478537803	1
precedence	1
downstriken	1
wormed	1
mustard	1
obscurely	1
presented	25
drobison	1
highways	3
rhetoric	1
looky	3
recital	2
respite	8
visible	15
remonstrate	2
canaries	1
8834701025526205231231721525406257163677	1
suffragette	1
rail	5
survival	2
7004686656825857982732387515830256672015	1
tranquil	8
inwards	1
inner	10
5534277461763554923181745615918566806168	1
solely	13
5210845840724432383558606310680696492485	1
birdsong	1
effects	20
breakup	1
marker	3
hung	21
cutbacks	1
conventions	1
producer	1
solemn	19
screamed	8
hunk	1
sugar	4
staggers	1
embarrass	2
rakes	1
moulded	2
who	952
game	15
kindergarten	1
0832462194230018597439670649114955941173	1
faith	13
7047263844037953016690546593746161932384	1
3346001116935570202257224427729502638405	1
denies	3
7816190894908487717722503860872618384947	1
6807751112666368547994446093480999295187	1
rearing	2
donor	2
wid	5
rocks	12
wearisome	1
malady	1
scorching	1
inert	1
blunder	3
_a	1
5455048471107874290549987060037398311376	1
wit	16
fondness	3
handful	4
stetson	4
unfairly	1
cannibal	8
stimulus	7
experimentalist	1
bewilder	1
barter	1
_i	1
gall	5
approaches	4
coleridge	1
availed	4
textfiles	1
flits	3
herded	1
3631358538902366255728542451601808048716	1
kegs	1
matters	12
couldst	1
whiz	1
quartering	2
administrative	2
attention	60
1214916207656769950659715344763470320853	1
fulfillment	3
7012101099442207370246136871960314911623	1
unfold	3
oneself	1
disproportionate	1
extent	35
5354073236342830218969494776612607834632	1
parent	8
smote	4
civilizing	1
powders	4
conciliatory	1
flitted	2
bring	81
trembles	1
brink	3
losing	9
skins	1
_shooting	1
disingenuously	1
familiarly	1
hush	4
claus	1
warfare	2
wantonness	1
manufacturing	6
barron	1
promoter	1
unmated	1
perch	3
rends	1
prowl	2
neglect	10
surf	5
departing	1
5866695597216865060520728013421043557627	1
ac	5
rankles	1
accoutrement	1
excited	28
veil	10
ag	6
ramp	1
defiling	1
ak	18
privation	1
uncanny	9
extend	3
manger	4
9432442614456659212912256488935696550091	1
as	3431
whooped	2
boiling	3
peace	75
garnered	1
5700	1
compression	9
unexpressed	1
hideousness	3
8500685262025843284208558233856693664984	1
frank	7
admire	8
recourse	3
beranek	1
8988787908778091800905070604006122001005	1
furnished	12
2037531899726180144046677930501403015807	1
notions	6
fool	29
nickname	1
exhorting	1
foot	59
ca	33
develops	8
benumbed	1
barmaid	1
ceaseless	2
outstanding	1
zipped	3
bawling	1
1923538531051736669154087312467233440702	1
quicker	4
uncivil	1
alternate	20
whilom	1
quicken	1
food	88
survivor	3
forgery	1
withdrew	11
prospered	1
7004468901104992393921808815562619183440	1
sewage	1
perceiving	6
essential	14
mulatto	2
encode	1
2814902414678047232759768426963393577354	1
insignia	1
haunt	5
tailored	1
stairs	11
gowned	1
congenial	2
dn	1
stealthy	7
donotes	1
dr	88
commissioned	1
fighters	1
scars	1
ruder	1
accomplished	10
equalizer	1
3735300198731104868956562819173620367030	1
won	57
rare	16
garment	4
chairs	3
preceded	11
usenet	49
enlighten	1
utmost	20
excruciating	2
coastline	1
1278265966620703038479588144279024666926	1
ribbon	2
softened	6
goodies	1
5097214331492586604248511405819579711564	1
es	1
quizzical	1
piece	40
cherishing	1
laboured	2
intervened	1
manhood	13
garb	6
7693205549118601535195516546279411755939	1
divinities	1
fog	11
transfered	1
mountains	56
contortions	1
clamber	2
unmistakable	3
origin	10
loveliness	4
3100	1
loneliness	6
burden	19
1172890394439366534029422651457568290749	1
waived	1
jefferson	1
fettering	1
personality	2
genevan	1
prophecy	5
featherbed	1
rats	1
hovel	14
outstretched	3
erronorts	1
spouter	3
armory	1
deposition	3
sorrier	1
plastered	1
abased	1
kept	97
scaur	1
6681400975952814939072226011126811531083	1
fork	3
disparagement	1
501	37
h3a	1
perambulations	1
counted	6
surmised	3
withdraw	7
8043328091329930789368671274139228900330	1
very	543
transcription	21
poland	1
delayed	9
amusements	1
memorable	5
0061488325454528199082562388058720428439	1
uuencode	3
abhor	8
soothed	6
dram	2
four	74
512	2
vessel	46
paralleled	1
ic	1
french	36
bathroom	3
gawk	1
ocr	1
7422461511406015760115910256449002264980	1
encouraging	2
unbroken	8
subsistence	5
index	23
is	2982
marshy	4
2246478161553353227545326454308709332092	1
schemes	4
rave	1
2612348783340344738335736019732359466042	1
somebody	16
fodder	1
habitable	2
enjoyments	2
distraction	1
vintage	2
contrast	9
libtel	1
untiring	2
shakespeare	2
kerb	1
1247645185080916391145929607115634420434	1
brittle	1
1090431831637960464315231844346697999048	1
rascal	2
escaping	6
pedestal	1
brooding	2
recovering	2
montenegroes	1
roamer	1
7462029476611600443555160473504429212791	1
jp	1
indefinitely	1
kneebreeches	1
majestic	7
jt	1
rhode	2
broached	1
whirl	4
farrago	1
malignity	7
strings	1
mangled	8
534	2
ka	2
jenkins	2
sending	37
ability	19
flushing	1
hindquarters	3
finland	2
ftp	149
demagogue	1
reprint	1
slums	1
slaughtered	1
1512541866488539616154205515237500042679	1
lantern	4
dungeon	7
0470231935986652337885624422918827843644	1
fowl	1
verbose	2
predilection	1
2968315635814542089054065122641916201550	1
wooden	7
545	1
oral	1
lf	3
misunderstood	1
4182564965563294518709637484074360669912	1
transaction	7
conscious	25
personified	1
hicks	4
ln	1
impeded	2
domination	2
montreal	1
fritter	1
1808901847311751199425460594416773315777	1
enterprises	1
obliterates	1
swiftness	4
sufficient	39
documented	1
1257467939781491953642874321122421579851	1
6160296211357005663834799033404962387594	1
widespread	1
torches	5
communication	20
locked	16
cabling	1
porter	2
whaling	6
mo	4
blackness	13
impudence	3
turmoil	3
indecent	1
ms	11
follows	16
confronted	6
plus	5
chosen	23
raze	1
entry	6
hotlines	1
expand	2
calker	2
2768601226558630456913133560978156776098	1
reticence	1
manoir	2
dish	4
fiscal	10
annexing	1
noble	56
rushing	6
arcana	2
survey	2
plug	4
foxy	1
outbreaks	1
postpone	3
rebroadcast	1
sundown	2
9199261674991148329821854382718946282165	1
bride	13
gliding	3
draughts	1
hammer	1
nt	1
inexpensive	4
abundantly	1
sledge	13
fasting	2
gnarling	1
seam	1
irreligious	1
4424850182171330052799555131253984991993	1
oil	6
productivity	1
dreamed	7
proposition	4
blam	1
7923369382166010702872651938143844844532	1
oit	2
revolutionise	1
9990039649482454575207049220916206142229	1
hear	159
occupied	38
skilful	1
brief	32
allows	14
pretty	86
influx	1
appendices	3
9637838415383805118440604369687166641651	1
sawbones	2
guardians	5
families	12
_but	1
rabbi	2
friction	4
relentlessness	1
wrought	19
manuscript	1
bach2378	1
campagne	1
aspersest	1
obsequies	1
knit	4
prophetic	4
infringement	21
3780297272073624396723985414448075728681	1
8456494622713008555942933445207270077182	1
registered	40
grouch	1
crusading	1
expedient	4
596	18
scarlet	6
salespersons	1
bathed	2
insensibly	1
foreword	3
dimpling	1
proposal	8
modular	1
grouped	1
bundled	1
edit	4
spoils	1
relapse	2
recreation	2
opponents	2
1332974354926568682748715986654943041648	1
undemonstrative	1
tightened	1
insensible	7
node	5
4069325060628344689375430167878153206160	1
orators	1
cognitive	1
mousing	1
attorney	1
teachings	1
oppose	3
4860549798023204004722368735574118581327	1
device	3
checking	4
belly	8
rt	2
4906476779188672030641863075105351214985	1
knob	1
swarming	1
ignominy	4
entranced	1
disconnecting	1
seem	60
toasted	2
snarked	1
oppress	1
archived	3
se	3
9800805090001981962175845893251687769859	1
1609096719200723765889422618655048755261	1
forester	4
si	1
5616573018540492174771620516784865079135	1
4438682533745889962375133378280532928272	1
5943300403637625911891956915616261227047	1
aiding	3
lecture	10
yourname	1
liar	4
insolence	8
braver	1
6192981971399147564488262603903381441823	1
unemployed	1
calendar	1
issuing	8
braying	1
su	1
moaned	1
abominable	2
mosulas	2
one	1480
neighbours	4
engravings	1
2694021594079244805412553604313179926967	1
tamely	1
monster	39
closer	32
tablature	1
dissociated	1
1120187618531256710150212239401285668608	1
crowned	6
trillions	1
scourge	2
6879525038204442326697479264829899016938	1
censorship	2
scurrying	3
partially	4
storms	1
unearthly	3
9300	1
country	340
commercial	34
tv	4
exporting	18
joint	2
underbrush	2
baseless	3
remarkably	4
reasonable	27
thoughtless	1
patricians	1
oaks	1
ruler	5
devotedly	1
paroxysms	1
sincerity	3
uc	1
qualm	5
abolishes	2
ramadan	2
uk	5
enthusiastically	1
dale	1
weightier	2
details	28
satisfactory	3
reluctant	5
futility	2
us	766
ensure	3
usual	24
organism	1
invading	1
vouchsafed	2
solus	1
this	3058
selfsame	1
reasonably	6
anarchy	3
spiders	5
scruple	1
remarkable	10
incorrectly	1
9352580382422737761243690870987518914904	1
imprecations	1
failure	15
punk	1
7656824247864736176671770647002431119711	1
cetology	1
freenets	1
bacchanals	1
sneaking	1
tennant	4
organise	1
frightened	21
yearly	3
mutilation	1
2611771808426643336517800021719034492342	1
destination	5
apron	2
prophesy	1
learning	48
wa	2
vertical	2
eccentricities	1
hearken	1
gruff	2
approving	2
we	2524
expects	5
untasted	2
castaways	2
dank	3
wm	1
shapes	5
heir	6
etext	63
gap	6
gat	1
shriek	12
watery	5
ore	1
slayer	5
truancy	1
coke	2
argue	8
misdirecting	1
lief	1
storing	2
damn	4
squeaking	1
succeed	17
lottor	1
variegated	1
compensation	4
loftiest	1
revel	1
unconsciously	4
maori	14
stains	1
chains	19
annihilation	4
embowered	2
tempestuous	1
0627604582523368805525211815664175534306	1
smole	1
zany	1
type	55
liverpool	2
repository	2
april	4
helm	4
4107259910648709897259362243300706760476	1
pupil	1
therapeutic	1
2701	4
reactionists	2
tottering	1
4648235308354013233292486403731800319520	1
hazard	5
yo	8
connection	64
asleep	26
seized	54
como	2
8565208403974421735274481374121527747520	1
cameldriver	1
teams	2
ominous	5
zane	2
conjectured	7
contract	23
9355499267134850315782388995675452879155	1
profitable	2
drenching	1
sluggish	1
misfortune	24
elections	1
push	3
contrite	1
utah	1
provisions	26
columbia	3
instrumental	1
shrift	1
argos	8
gds	2
nationwide	3
ascertaining	2
sexual	4
fussy	2
scape	3
mortifying	1
legitimists	1
medicinal	1
out	903
capacity	13
xga	2
acadstck	1
scoffed	3
get	352
holiest	1
cached	1
dark	101
runaways	1
fatality	2
semi	2
gloomily	4
footways	1
musketry	1
dimples	1
ulterior	1
starched	1
bridal	6
thousandth	1
sell	19
obstinacy	1
buffalos	1
7417035375420036987606087655001093452990	1
brain	26
thou	508
courthouses	1
oblivion	3
infuse	1
sprinkled	1
indiscriminately	1
disciples	1
mingle	1
fatalist	1
unified	1
ended	17
located	77
8135867117352364964121058854934496645898	1
chorus	209
gaspy	1
missourian	1
inscrutable	1
minimum	3
4253417010988435853189339175934511574023	1
insidiously	1
date	94
vindication	2
1664061708131602078213341260356852013161	1
addresses	31
confounding	1
data	58
hindrance	3
calloused	2
own	528
obliged	16
drum	2
rustling	2
floundered	1
translate	3
ksuvxa	2
cose	1
distributing	130
partisan	1
blow	54
_the	1
resource	25
purposed	5
appoints	2
illusions	2
worryin	1
strangelove	1
cord	11
hens	1
proposed	11
hills	21
britches	1
visitor	16
dash	7
balderdash	1
thereupon	5
9625742442542054678576747819095948650057	1
note	49
disencumbered	1
gid	1
purpose	123
rejected	4
link	4
scale	12
vegetation	5
candles	3
hero	4
emily	3
hers	21
gip	2
superiors	4
robin	1
engaging	2
researched	1
tempest	8
git	49
cenis	1
tradespeople	1
purport	7
hearth	15
suffices	2
cassava	1
abstinence	1
scaly	1
affairs	9
earning	2
dick_	1
limb	16
costs	50
factory	5
stating	1
sept	1
aims	4
netherworld	1
will	1088
confidence	19
fishing	9
implementation	1
edges	6
arbitrary	1
6606733386480367086953749244898068000217	1
wilt	28
repletion	1
tempers	3
bordering	2
oath	12
conversational	1
narration	6
6426195973904554506806952328507518687194	1
dignity	7
locations	38
milkmaid	3
sprays	2
chatting	1
doubloon	1
wild	65
snap	3
platter	1
german	25
exceeding	2
numerous	34
3990168193205624192797728202671429725870	1
recognized	24
4381635772169811546432924560895115873201	1
3472525472435765919296994906167018906143	1
remote	27
buds	1
slower	4
begins	7
stratagem	1
carcass	8
yearnings	2
protected	5
proffer	1
wasted	12
compartment	4
abetting	2
unsocial	1
discernible	1
calculate	20
thuran	1
rancorous	1
assassins	1
sorrowing	1
whatsoever	39
captors	2
unsunned	1
everlasting	15
thus	247
habitations	3
disobedient	1
possess	8
zava	15
fashionable	1
connexions	1
hest	4
frills	1
serf	3
remarking	1
cellular	1
executioners	1
lopped	1
arab	2
sights	12
independent	16
acquitted	2
anybody	27
languished	1
alleged	6
talking	33
8520597263859224934763623122188113706307	1
afflicted	6
3484633179219044946529230214692597565663	1
hubble	1
55101	1
juggernaut	2
dwindling	1
boosted	1
nitty	1
stings	2
6747491801634566788881078210115182631487	1
borrower	1
scraggy	1
omissions	1
faculties	9
queries	1
forests	8
soviet	4
flatted	2
reconnizes	1
licenses	2
strangled	3
blue	33
unprecedented	1
arch	11
faces	18
wrap	2
prehistoric	2
acceptable	9
harmony	7
5160925884515772055232896978333126427671	1
correct	5
unfurl	1
decomposing	1
gov	15
pac	1
9395002945834116482411496975832601180073	1
interestingest	1
dapper	1
grievance	2
avert	5
gracefully	4
inquisitive	2
manifestation	3
pounced	5
tracing	1
visibility	1
minors	3
paw	8
0518704790601584084302914787302246651371	1
lisp	1
clearer	5
alienation	1
list	111
contributes	1
revivifying	1
reveres	2
darkened	5
labs	1
trussed	1
2930186739439716388611764209004068663398	1
600	2
aren	9
vanquished	4
lolled	1
3530937123524396914966231011032824357006	1
crested	1
mismanagement	1
3999747352627641261259953509026095400486	1
pbx	1
gasoline	1
deductions	1
bloodhound	1
phantoms	1
outstrip	3
pear	1
_at	1
confinement	7
secrecy	1
divides	2
afflictions	1
fairest	3
619	2
espoused	2
gophers	5
6371345205439802277866337293290829914010	1
inhospitably	1
victory	14
audacious	1
morbidly	1
8506759050366239172210873233316990960336	1
quarreling	1
negotiations	2
floggings	1
saleve	4
with	4189
amended	2
laborers	1
taint	4
9256555487861614478717581068572356895150	1
disconsolate	4
complains	1
battlefield	2
snip	1
lady	53
pdn	1
debating	4
pocket	20
cyllene	1
pede	1
injustice	16
offense	4
foreigners	3
indifference	4
virgins	2
1432723445780681992582320285139823711892	1
halftones	1
wrack	1
utilities	1
exterminate	1
flashes	4
4702007661807418914040158148560001030119	1
exaggeration	1
peg	7
camel	27
1785129430593232816058265356238481641921	1
tremors	2
spoons	2
4567	1
_king	1
deliverer	9
scripted	1
curling	3
africa	23
proceed	19
amorphous	1
fruitlessly	1
2929126630316970587409214456472022710796	1
cfarmer	1
loyalty	4
breathlessly	3
acorns	2
understand	94
sightings	2
dismiss	2
picnic	1
spears	15
6360636867461196662034730460891727724004	1
slowly	49
groping	5
ever	300
shiftiness	1
640	2
even	481
manifested	4
8552084884188602735278086121804941806001	1
douglass	40
bulk	8
imprecate	1
queer	6
hundred	89
iniquity	3
folds	3
queen	22
0169842055804033637953764520304024322566	1
gut	2
2157505672999127417714927960883150235869	1
indicating	21
engages	1
mason	2
legislate	2
peer	4
remembers	1
twixt	6
mainsheet	1
betook	3
costly	1
rapped	1
7061826549138518132673748522718826791791	1
nilly	1
particularly	36
gothic	1
5784275853064570661712719496737108395060	1
desolation	7
boughs	5
lain	4
apprehended	3
impressions	5
lair	2
lampoon	1
ceases	2
writ	3
raved	3
hacker	1
framework	1
generly	1
rudolph	1
requiring	4
ineffectual	4
mirth	1
retains	2
tide	13
restlessly	1
palisades	1
almost	215
supernatural	7
mocha	1
sustained	10
suits	6
6641595493886838364118914304437677154980	1
associate	2
pig	11
anklets	1
8931065038380609337284139922673338477820	1
whipping	22
discusses	1
coquetry	1
stock	16
surge	5
solitaire	1
tertiary	1
basis	10
tutor	3
senator	3
pleasures	14
reconcile	6
4641862733690915849731850111839604825335	1
stumped	3
appropriates	2
governor	2
basic	22
swag	1
uninterruptedly	1
biron	1
forthcoming	1
interment	2
rising	21
ether	2
agitates	2
locate	7
raptures	1
1325834287152408356615221655749984312362	1
8381554894714673365248367913856643108474	1
bradshaw	4
lans	3
acquittal	1
8442505695369677078544996996794686445490	1
perused	1
_it	1
grievous	15
disallowed	1
0944631954765865303210472380462524997191	1
1039655873354980385099514346350617536148	1
pursue	29
tarpaulin	1
dryness	1
design	17
laurels	1
luther	3
primogeniture	1
explanations	1
department	3
lang	1
vestment	1
subsidized	1
nothin	3
6314151759089289869561975611230253108750	1
sacrifices	1
imposing	4
murderess	2
follower	1
contributing	2
readme	5
confiscating	1
citrus	1
pebble	7
6805374277273788637267830165683510923322	1
fronds	2
sahara	11
bury	17
7076022174335116273317094727659324132491	1
lamb	10
0544448132093266582986850659125571745568	1
wrested	2
0701292607801970225896629233681543124994	1
changeable	1
objectives	1
renamed	21
wall	39
formerly	9
sacrilegious	1
fanned	4
meddling	3
decay	10
dazzled	2
grieve	3
crowds	4
imbued	4
3676459875488726170687163109591315801609	1
wayfarers	1
lessen	1
lesser	4
schaffer	1
sufferance	1
nurseries	1
welcome	33
filtering	1
steamboating	1
pointers	2
6006849380408752108541598512780703332077	1
landed	18
discussing	4
9669365218674805943569985859699554089329	1
recounting	1
flecked	2
anthropology	2
inefficiency	1
mankind	18
theban	15
3405754757017043670395964677159592610294	1
7749858973536255919596185524481879403173	1
geniality	1
townsend	1
angered	1
swimmer	3
uncover	4
thickly	3
recognize	22
processor	2
4424371075390777449920695517027618386062	1
compounded	3
imbibed	3
deserts	6
3197269298451668330691950507999335725916	1
pooling	1
moonlit	2
peabody	1
feynman	1
ajar	1
pulses	2
comparisons	2
relapsed	2
alima	38
populations	1
bagpipe	1
1000660041544868437352208483059495953182	1
passageways	1
soothsayers	1
huddled	6
sophisticated	1
fount	1
grazing	2
hulking	1
precursors	1
reside	2
giving	29
capitulated	1
chase	12
prize	11
pens	2
marine	3
retreated	4
elexander	1
bethought	1
routing	1
found	432
freer	1
chasm	1
detestation	4
reprobate	2
orkney	1
clenched	5
gives	40
funny	14
retention	1
convict	1
cruelty	24
7084905801515382053383265112895049385664	1
ideals	5
surplus	2
correspondence	5
consulting	3
suborned	4
dabbled	1
seekers	1
nearing	1
fainting	3
declaration	12
entirely	58
speakers_on_internet	1
disclose	4
sepulchres	1
philosophic	1
tragedy	2
powerless	2
6093892146686937298811915601156337012486	1
hymenoptera	1
6038716811431308417289371081741276458120	1
miniature	2
summarizes	2
prosperous	2
representatives	2
chart	7
sightless	7
filetype	4
friendship	28
rightfully	1
attend	25
goods	5
lynch	4
antagonist	5
meridians	2
hag	3
instructors	1
2416907694316685742425225090269390348148	1
8517394189466510943745768270782209928468	1
disappointed	13
late	61
kort	1
brutalize	1
proclaimed	8
basically	6
despondence	2
attracts	1
avenue	2
has	513
abolishing	6
cautiously	10
realize	11
brush	7
sighed	7
last	358
trapped	2
marathon	2
adapt	1
batch	1
preserver	1
hayes	3
despondency	7
casualties	1
searchable	4
7944256602433064619312002953123619348034	1
centralisation	3
7381323286279434907632338298807531952510	1
warn	74
bookmark	1
guilty	32
measure	13
forsakes	1
outskirts	2
harrison	2
3694150848886750189315699484983893605266	1
lash	13
playing	22
newsreader	1
scotch	4
mcdougal	2
injurious	2
derogatory	1
stooped	2
5087	2
quibble	1
overhauling	1
gasped	4
physique	1
squall	1
psi	16
schoolmaster	4
acheron	1
bunches	1
hooked	3
thicker	2
brute	28
updates	4
dried	5
vegetables	4
cowed	1
untenable	1
anything	130
mirrored	2
yesterday	9
rustic	4
awaking	1
prudent	2
denying	4
overcame	11
assembled	6
vote	10
steady	19
incitement	2
gravely	6
exult	1
snails	1
battering	1
adaline	1
tray	1
nocturnal	3
forming	2
1625787047654312679066121664414228501744	1
flourishing	2
dominions	1
brung	1
wheeled	5
governments	20
infant	21
continually	28
seafaring	1
1081604152410021419593734978643166155673	1
offence	7
options	4
_to	2
hew	1
tarzan	387
6875292113593222026568185641826082753879	1
gobbling	1
pest	3
6364769430661725491861437009713875679402	1
9091785739765951993929939955675427146549	1
3849745023626573319174244656778749966500	1
swoon	2
caves	6
plowing	1
twigs	1
bowels	1
sophocles	6
blatant	1
light	140
passenger	5
apparently	27
appropriating	3
standpoint	3
0425791378948827579603278877535466861441	1
businesspersons	1
fearlessly	2
worship	6
valuable	18
potluck	1
supercomputer	4
greybeards	1
methods	59
6492309412151445639478899993271458759695	1
merits	3
blacksmithing	1
mouldering	2
enraged	7
sanitation	2
4071945996323060254707901774527513186809	1
undergarment	1
warily	3
landful	1
1188904172457053747075555058163283168724	1
barred	6
uncultivated	1
clicking	4
predatory	1
henceforth	8
barrel	2
organs	2
desire	78
terrified	14
2083234847108471706160879195227388252347	1
unfortunately	10
consistent	6
3937577185991633511216344103791045184501	1
disgrace	11
reverse	4
strides	2
3049989264720349869653633262109198306214	1
encountered	9
swore	6
wonderland	1
january	17
mischievious	1
permanent	24
travel	16
governed	8
beal	1
sliding	2
causeless	1
7121048394392009459146475424247859910969	1
defeated	2
gropes	1
4094412115120017386972614667869337331543	1
hailing	2
temptations	1
bruin	1
his	3368
beat	19
heeding	1
funds	4
eighty	2
proofread	21
brightened	2
woodwork	1
potential	5
rhine	8
gravest	2
croak	1
imports	1
bruised	1
exclamations	2
resist	8
tree	101
archive	259
6257875620364294270257512121137330213811	1
disarm	1
stimulate	2
exorcise	1
careless	6
camps	2
distrust	4
0207695393241550967626808876035724639139	1
managing	3
funet	2
interference	2
9920604126004986589502724713314676372220	1
fibre	3
belonged	13
thrusting	1
8128905560530091416446608691247256021455	1
values	3
6575531754156198940698289315745851842783	1
8192	1
reveals	2
their	1379
shutters	4
hopelessly	1
inquisition	1
knightly	1
grieved	6
1757242129972354206963042785795060891111	1
banking	1
1679508874879344167595983619600109948387	1
fixings	1
inroads	3
6203697849734599020046068865727018658677	1
banned	5
meandering	1
4972322654915106296173905061785712750940	1
fronts	1
deserve	9
artisan	2
hubbard	1
restore	14
formlessly	1
4832982299616721708015680108079977712651	1
posting	12
lassitude	1
creesus	1
0233	1
luckless	1
craves	3
fulfilling	3
reproaches	1
asunder	6
domicile	1
recked	1
ferret	1
throbbings	1
13th	1
numbing	3
innocent	44
lurch	1
repulse	1
hoarse	3
barry	1
archie	34
crimsoned	1
executing	1
meek	2
advance	24
attendants	6
tramp	1
anent	1
trim	3
montanvert	2
transmitting	1
foregoing	1
rumbling	1
murderous	4
telecomputing	2
reflects	1
lloyd	42
safely	14
rally	3
knowledge	106
soft	40
jump	14
dispassionately	2
happen	31
3518813746388710427354476762357793399397	1
devised	3
levelling	1
active	55
prostitutes	1
2227590699346481624734399733206013058796	1
bestowing	3
purty	11
islands	9
espcecially	1
9163278018852504558488782722376705263811	1
combs	1
8624279864114379284356205759555001443080	1
councils	1
timorous	1
beds	6
replenish	1
hoe	1
processions	2
gardens	16
dissipated	3
20550	1
chamounix	5
pleasantest	2
comer	2
trusting	1
bottle	3
unsafe	7
procured	10
rouse	4
6880272205233860037284290315582845459385	1
hitherward	2
8123196025337336774379706877138147475521	1
adduced	2
_abolitionist	1
innings	1
embedded	1
blare	1
bully	3
despairing	4
tusks	2
chin	4
tain	1
democrats	1
emotional	1
thursday	3
assemble	1
affirmation	1
dragged	17
dante	1
shrouds	2
tells	14
traps	1
popped	2
prevails	1
june	13
bigblue	1
regarded	26
answer	107
7716958419563109577748529579836844756803	1
spasm	1
seashore	1
saints	3
restored	23
703	4
ineffable	3
bolder	1
thrive	1
imaginative	2
glen	2
abused	3
7938668614293324543983592637036699355184	1
dispatch	2
rubbed	11
sometimes	143
arkansas	1
inborn	1
moscow	2
inclined	19
jura	5
easter	2
glib	3
tale	76
magnificently	1
shipwreck	3
trail	44
overwrought	2
prior	6
directorate	1
antics	1
obstructing	1
trait	4
listened	26
reply	38
hundredth	2
loomings	1
summits	6
ignored	5
perpetrated	6
rapidity	5
rafter	1
6119054145955378853200366615264923610030	1
2000	5
sockdologer	2
scholar	3
granting	2
revolting	4
polydore	1
unloaded	1
cupola	1
budgets	1
9855057478471210535057956490959316721675	1
rosebud	1
rigged	2
beneficial	2
70s	1
reckon	39
confusion	10
thoreau	4
subtlety	2
affording	3
purchasing	2
session	13
2011	7
denominations	1
5934198562478071443497720199170266538071	1
disproved	1
aggregation	1
3541306067213604600038966109364709514141	1
7334207198502259771408638122015980894363	1
econferences	1
owest	1
trow	2
2008	7
2004	3
passer	1
alpha	1
dialing	5
kernels	1
conceited	1
tank	11
outward	12
rambling	5
winged	8
micromuse	7
rascalities	1
jury	10
espied	1
highlands	2
asia	3
sledding	1
monitor	4
superintendence	1
eternally	1
trumpeter	3
utopian	4
moulton	3
strictly	6
entreaties	5
shields	2
although	74
7333633425768598836125272025094401943067	1
3081751126989851884087185640260353055837	1
classmates	1
diplomat	1
hug	1
dumbstruck	1
chimbly	1
infests	1
subtlest	1
fortunes	4
1870075823122317068134867930884899275181	1
basket	8
ransom	5
upland	4
petrograd	1
shedding	1
ordinances	1
7450825607289512094545656215954040542581	1
america	26
westering	1
tape	6
2026	1
itching	1
religions	8
outlander	1
action	44
oration	1
anticipated	2
saucers	1
rogued	1
fired	12
suspected	6
portmanteau	2
feudalism	1
chop	1
cream	1
sensitive	13
wondrously	1
hoof	2
detached	1
accompanied	22
761	1
lamentation	7
religion_	1
765	1
reached	72
asks	6
impede	1
2162483791737330329812349528984098613273	1
machinery	12
boomed	1
ably	2
longest	4
statuesque	1
rotterdam	2
conquered	8
instantaneous	1
deriv	1
robert	6
streaming	4
bibliography	6
4496848756023362482704197862320900216099	1
aa622	1
austin	3
member	12
witlessness	1
periods	1
affirmative	5
together	142
7998016125492278509257782562092622648326	1
nerved	2
socially	1
strike	22
heresy	1
gathered	26
cruelly	4
marks	10
playfully	2
knoweth	5
ment	5
eurydice	5
agents	11
able	73
efficiently	1
mend	1
6244371655327502287978025986909811112265	1
succour	10
codes	22
charities	19
inopportunity	1
conscience	31
practically	29
banquet	1
inheritance	2
decently	2
tantalize	1
insensibility	2
seats	5
astound	1
copyrighted	8
harboured	2
irreverence	1
shears	2
downloading	22
fine	42
frementi	1
huntsmen	1
therefrom	2
bowley	1
weeden	3
0694005665340584887527005308832459182183	1
international	29
calculated	25
emblem	1
burnside	1
herbage	2
exhortations	2
2353637682260360801740406609971511768804	1
relaxing	2
difficult	26
irreconcilable	1
sort	82
whimpering	1
heart	209
wanders	1
transforming	1
0456577927203520592134592427296520668333	1
lycurgus	1
infer	2
ousted	1
true	107
befell	4
grunting	1
racked	4
4823361832738729697376598820053895902935	1
harvard	3
quieting	2
curtain	1
since	158
coroner	1
transgression	1
hove	1
blinking	4
dangerous	26
appears	37
1268435760356901970523138364640961311774	1
racket	3
driftwood	1
persevering	4
3212907772374850663548917089285076023435	1
roosted	1
assuredly	5
flats	1
deceitfulness	1
3323052149999818290461194716767275037422	1
heard	214
lordly	3
experienced	33
appear_	1
discontented	3
gorilla	1
prentice	3
lunkhead	1
sought	68
renter	1
volition	1
master	228
extraordinary	9
lakeside	1
concerning	73
regulation	1
caravan	17
puzzle	1
accommodation	1
relent	3
villa	2
persecutor	3
kidnapper	2
favourites	1
moralizing	1
insensate	2
92186	2
opensesame	1
vices	7
firm	27
accessing	3
agenor	1
humanitarians	1
4511838669964622788855817353221326876634	1
1958673806144240150243628895750320653369	1
fire	98
covey	70
purer	2
sticking	8
bombastic	1
adventurer	1
symbolic	1
uplift	3
benefactors	2
_root_	1
premonitory	1
bets	1
something	178
loyally	1
enthusiastic	7
anonyomous	1
inflicted	12
0595547112244390319647664276103816428591	1
goest	1
shower	2
nevertheless	15
debar	1
prominent	2
manure	1
haying	1
shipyard	1
robison	1
unmindful	1
enkindled	1
promulgate	1
newsboys	1
bases	1
wentest	1
swooping	2
outline	6
superscription	1
adieu	2
unless	133
1783106850156299135559874758848151014815	1
particulars	4
equality	2
8542441280599762850548891309833176188498	1
rebellion	8
0235304369941849146314093431738143640546	1
weary	11
perpetrator	1
protections	3
thorough	4
encomiums	1
_great	1
simon	1
trips	3
marvelous	6
1968698934611177160561910681226015874410	1
glorifying	1
ranking	1
reactions	1
limping	1
handmaid	1
clinched	1
verbatim	2
mainly	4
melancholy	21
7678954912860981123113070025356003478986	1
shrub	1
presentation	1
exhaustive	1
carpeted	1
crews	1
five	77
redeeming	1
beforehand	4
merchantibility	18
thrashing	1
multiplies	1
quarrelling	2
keeper	1
4816223767904149267426000710459226953148	1
please	116
collection	80
ide	1
fits	8
autobiographical	1
elected	3
youthful	5
guessed	10
0182766336227978104546331131294044833570	1
multifarious	2
conflict	9
saintly	3
installed	2
gulp	1
squat	2
sevenfold	1
newman	1
isbn	14
jeering	1
8741459246461740473527525050678399227312	1
motors	2
smarter	1
towers	3
fundamentally	1
dismounted	1
4697834832037601161391385549993399078665	1
moonshine	3
poet	4
ndsuvm1	2
cataloguing	1
summary	3
blinds	3
strasbourg	4
inferior	5
growls	4
taxpayer	1
ratified	1
guitar	5
3760181694031056909587141386804846359853	1
artificial	1
chastise	1
herdsman	29
venerable	6
milanese	1
indiana	5
employ	8
diffused	5
comparatively	13
reasoning	11
shrivelled	2
betrayer	3
professing	3
stepping	2
hydra	1
tenement	1
disadvantages	1
politic	1
safety	44
slavery	135
cress	1
5819996523927548842743541440288453645559	1
staples	1
calculator	1
compress	1
arise	29
besieged	2
temples	7
implanted	2
9174337193208062873130358964057087377996	1
expiated	1
reduced	17
dressed	23
risked	5
imagination	37
blenches	1
eminent	1
underneath	3
fail	23
welcomed	9
wines	1
anyone	115
entombs	1
apprentices	3
linguistics	2
6614623850633127072987745618984384288764	1
espousal	1
thumb	3
seize	16
irksome	7
torchlight	1
magnanimity	1
protector	2
tracked	2
xmodem	2
birds	57
substitute	2
subsisted	2
60532	1
blaze	5
3447171861564772381173703565491762870758	1
mysterious	9
causes	11
decanter	1
scatter	1
8173394627476446568589009362661233111529	1
4444206644691649334467698180811716568665	1
boldly	3
collective	2
event	21
pictured	2
unmoral	1
erase	3
railroad	10
unprepared	3
exhaustion	4
gratify	2
safest	1
abstract	2
suppliance	1
thunk	1
constables	4
evolving	1
culture	23
spake	6
poking	1
1929497361659442594717547651352052450725	1
clues	2
span	7
pronouncing	3
8976226554849416217149895323834216001140	1
docile	2
combating	1
relinquishing	1
crystalline	1
appealed	5
clearly	43
tight	4
stringent	3
space	33
7973113259516101749193468250063285777004	1
preferable	3
chamber	22
contacting	3
5451967565591819686908852834348860508285	1
gesticulations	1
struggles	6
from	2126
squeals	2
unerring	2
deceptions	1
7426443366121740117669149192355709056448	1
dagger	4
doorways	1
mainmast	1
drawers	1
instants	1
9538099681072143012394693530931524054081	1
devilish	3
likeness	2
muffling	1
finished	24
published	15
typesetting	2
2075751287742739928248669212856372400691	1
fostered	1
halter	2
once_	1
fortress	4
andronicus	1
pauperism	1
4326592646722399821864527976648266730701	1
covered	46
dimity	1
4806040437372771834769014720664234434374	1
spinning	1
6733670106150942434569844018733128101079	1
squid	1
cyprian	1
replacement	96
tossed	8
arthur	3
comin	2
pone	4
steak	3
gainsaying	1
friendliness	6
according	31
frequent	8
8361531383751432493056398381877995594942	1
interact	1
3024850235732214597843282641421684878721	1
_ell	1
membership	1
outright	3
3157654270379068371757648702300523881974	1
network	92
dinosaurs	2
soiled	3
5404683423386107608236057829419480093343	1
pomp	3
3026486760843320465852547055588241025465	1
decoded	1
colored	46
denounces	2
concealed	14
tirades	1
procure	12
enslave	2
inc	11
creosote	1
lookup	1
liberalism	1
enforced	2
constructed	6
ink	6
trader	3
7786984177356031181116775638725899115168	1
_thou_	1
6690773118001211882997373198910060609668	1
crept	20
round	63
currently	2
presuming	1
2118623318278614464727795523218635916551	1
4308117317394338867965739135764377642819	1
unveiled	3
weave	2
horses	30
hurries	3
fare	15
9511878967467070733778695925655427133400	1
tolly	1
braggart	1
betides	1
8188440578002884401812903137865379486961	1
overbearing	1
raleigh	1
score	11
smattering	1
poor	162
interruptions	2
farm	23
ram	6
sails	6
4991111208706392028924906984353331527279	1
glimpses	7
5827227123250314207124881002906972263111	1
insurrections	1
pdqfan	5
enduring	3
excellent	38
unlocking	1
withered	2
englishman	13
ray	5
dissembled	1
sprinkle	1
bullneck	1
6999587592181529761248240911695158778996	1
cultural	3
queequeg	4
persons	31
warms	1
artful	3
7028150678628108252432229799853917598451	1
invaders	1
bondsman	1
municipal	1
2801010066817878677611982596153764364182	1
pony	3
smilingly	1
providing	76
4632237020715331348870831741465914924063	1
cultured	1
chapters	10
macintoshes	1
pore	2
relays	1
manual	11
uncertainty	2
necked	2
sentimental	2
isoc	1
6636937503536869945455039287444994032832	1
2945234880983414766455593422094020597334	1
vocabulary	1
8451512028339664054749694634398628829195	1
botanist	2
3783242292418562564425502267215598027401	1
efface	1
barbarity	9
quailing	1
abner	4
ciphered	4
scented	1
pleasance	1
intending	8
irs	18
massacres	1
oblige	1
oppression	5
vindictiveness	1
swing	5
movable	3
leisurely	3
desperation	3
pops	1
spin	3
robber	5
cistern	1
dappled	2
scout	1
nine	22
fleet	5
unborn	3
organised	3
foreman	2
rural	4
annoyance	2
pots	5
3439847958862863293474665069028406671901	1
agreeing	1
repetitions	1
9568491823335893081336013148874836646422	1
languor	3
0143502160890185703558173661823437491622	1
act	71
yearbook	1
weeds	2
morrow	13
_friends	1
2097760735632832966564135817028088013546	1
lenox	1
escapes	4
effulgence	1
christians	3
6521469602766258359905198704230017946553	1
unbelief	3
3549732923724732067853690257536233971216	1
consent	26
benevolent	15
1188920114871545460924735613515979992999	1
parenthesis	1
helpless	31
avenger	2
distorted	5
respect	29
article	16
shelf	2
coldest	3
hastie	1
knowed	35
wineless	1
0612033376286953379243954715539421312102	1
yawned	2
begged	26
panther	66
reasoners	1
groans	9
nourishment	3
puddle	1
billy	1
plotted	1
scrambling	1
searching	14
wickenden	1
numberless	1
4431325347713094186717178607522981373539	1
6517023595097133203631578945644487800945	1
blossomed	1
anchors	1
heliconian	1
miles	74
monarch	8
sanctuaries	1
4310059584116612054529703023647254929666	1
hungered	1
grandeur	3
853	1
industrially	1
unopened	1
reasonest	1
colonel	48
recorder	2
ghastly	9
2136758288423285957759412684479036912662	1
northeast	4
infused	1
6400312152787022236646363575550356557694	1
3200709328709127443747047230696977209310	1
improvement	19
modify	2
864	2
moves	3
6042207963944666211632551577290709784731	1
villainous	2
enterprising	2
panniers	1
vultures	1
enjoyed	33
username	9
tendency	8
hardy	3
overlooked	6
sanity	2
rumors	3
yesternight	1
ravished	1
years	228
infects	1
subconscious	1
gestures	5
boar	3
pleading	6
obedience	4
muscles	17
reformation	1
rim	3
acme	1
decline	8
centers	3
grandest	1
spoiler	4
jerry	2
aha	1
businesses	15
7223820497725773074545629791279061775316	1
delicacy	2
unwhipped	1
homeful	1
eggs	7
scuffle	3
weeps	1
acks	1
7313146387857817205661409023041499923248	1
whistle	2
isolation	2
resorts	1
5219148498992040000731067236994465524602	1
masses	9
resented	3
exit	22
spinners	1
defects	26
spot	61
clogs	1
watercourse	1
mighty	82
7849	1
repugnance	5
0680253981841892988894303822476618640585	1
incarnadined	1
negligently	1
imprudent	1
confederate	3
ain	142
exclusion	22
torments	5
air	102
6746537028746606258434632970830372598049	1
courage	39
slyish	1
speak	117
terrace	3
assertion	4
inveterately	1
outcome	4
endeared	2
reproachest	1
polar	1
incidentally	2
craving	4
hyde	105
fishers	1
recollected	3
3411581934618336692169573605081585080837	1
disregards	1
filled	64
meantime	13
prototype	2
3952678073545797003070511636825194877011	1
reversal	1
tended	6
objected	3
spades	1
workings	2
despising	2
spun	5
firesides	1
semicircle	2
unquenched	1
impressed	29
stimulated	2
precision	4
body	125
forays	1
phoebus	14
spur	6
milky	2
reat	1
choosday	2
ala	5
reap	2
thames	1
mister	2
nemesis	1
engels	4
mountaineers	1
ale	1
maintained	8
complement	4
7865480871476464512824264478216644266616	1
read	190
avoids	2
6223878772230396359709132856830486160362	1
clock	43
real	76
englishmen	1
rumour	1
communists	24
9171467622673050442250759152902517427746	1
sortie	2
abides	1
mock	9
4308268617722393852508837607497421959426	1
rifts	2
catched	4
pocus	1
collect	12
badly	4
unperceived	3
libadmin	2
3161781389497095503836947959461797982925	1
rearranging	1
roc	4
4002113207421986429173836791762328264446	1
curtis	1
retrod	1
verdant	2
responds	2
dumb	4
quiver	5
lamented	1
shorewater	2
2455165080886442121211391435245393522552	1
rebellious	6
2329175076469684003556425503797106891999	1
gloss	1
negatively	1
0690694753343167780263220722626588184275	1
flaccid	1
row	7
foldings	1
footfalls	2
commented	1
snowy	10
casement	1
cesar	1
infantine	1
deliberately	7
radical	8
looked	201
ans	1
chinks	1
unnecessary	3
jined	1
3026684221503351177364718538723240404210	1
burglars	2
wrongs	10
3241042424451570052968378815749468441508	1
duly	3
5815465145982702286766718553093119233401	1
caring	5
ladder	29
6676813962114438916324032357415737737879	1
animating	1
punctuation	3
consists	5
until	173
outburst	2
5849945649558685562820874724831835151633	1
reversed	3
48109	1
profuse	2
silently	15
8778885311027816950875457403846075946169	1
comforting	1
intimation	3
barking	2
drowning	2
7531774997379929304329437176380185628006	1
shin	1
catfish	1
revolutions	2
3239066267086028461633760515735990508698	1
identification	21
altar	12
chiefs	3
jam	3
ape	188
exclusive	3
testify	7
nanny	1
unmixed	1
occasioned	3
shelters	4
lightning	19
righting	1
margin	4
reconciled	3
jay	4
levin	2
fathering	1
perplexing	2
girlish	3
nail	3
containing	31
9091354407852685476254126683398240534022	1
reed	5
whelms	1
bandaged	1
vial	2
spirits	46
males	2
preceeding	1
fugitives	5
whitest	1
002	1
warranties	60
pathetic	7
unexplored	3
006	1
turkey	3
letter	89
alternatives	2
completes	1
calculations	1
telescope	1
choices	2
accuse	3
increased	20
hymn	6
6794795881033393541328970252889353374810	1
dubiously	1
recompenses	1
appliances	1
impotent	2
aristocracy	8
espouse	1
handed	18
acquire	6
doubting	1
worth	49
allays	3
013	1
branded	2
curdles	1
unfrequented	1
pleaseth	1
017	1
skyfox	1
came	432
captive	7
4174023889344124796357437026375529444833	1
ark	3
2722103132744475408331921513593452696139	1
froze	1
7821037407330768184330408936244605767060	1
perforce	2
psychologist	2
cleveland	10
retard	1
pglaf	144
enviable	1
airship	3
missionaries	3
kidd	1
020	1
fitted	12
call	142
024	1
ravening	1
kick	6
knell	3
allurements	1
028	1
fishwives	1
5258697717023668003386250576493808874099	1
knelt	8
slaked	1
rue	6
ast	2
vife	4
officer	11
assailed	2
bloodshed	3
organisation	4
occasional	12
rum	1
individuals	12
imprisoned	5
repeated	21
031	1
aeronautics	4
extinguish	8
035	1
goverance	1
ate	10
039	1
inforced	1
ourn	1
subjugate	1
results	21
dust	22
newest	1
recurrent	1
indelicate	1
southeastward	1
1218748182028339418870763117316152898117	1
7417492087541064556959508967969794980679	1
sanguine	1
bole	2
knives	6
lifted	20
lodestar	1
bleed	2
042	1
prosecuted	1
046	1
watched	40
volunteer	26
debase	1
winding	10
architects	2
senate	2
7135208417428211847353652367573702352791	1
neighborhood	4
justifies	1
7197969682641117991865603899389541892848	1
plodded	2
shop	9
mercenary	1
planted	1
approaching	28
edition	36
6823719364800217328573493594756433412994	1
053	1
shot	24
crouch	1
perplexity	3
3852086508154491350136491698639048125666	1
malicious	4
057	1
vigilance	12
2505486708172221475138425166790445416617	1
gloves	1
acids	1
southwards	3
plaint	1
defend	18
conceding	1
feverish	6
hireling	1
1719	1
boot	6
dotted	4
pennington	3
ennobling	1
shod	1
interfaces	3
vanished	15
resting	7
princely	1
imbruted	1
frown	6
060	1
agitating	1
grimy	3
064	1
pleasurable	3
068	1
7833151318675891566830067921021594733685	1
1528827288228313754586782698306966912201	1
nervous	15
giants	1
duty	57
stranger	96
ardor	3
boreas	1
rye	1
bedewed	2
gurus	1
yard	25
trump	1
rebel	3
2133205286374577983487319388899574634252	1
071	1
3269996508860870999964899373049307170967	1
unremitting	3
075	1
axe	11
jim	157
subscribed	1
079	1
2200856673695770822720338936659590666350	1
broad	41
apothecary	2
pledges	1
incline	6
morsel	4
greater	54
loosed	5
elevate	1
utilized	1
creaking	4
flirts	1
admired	3
oppressive	3
waits	6
scraps	1
outhouse	1
082	1
admissions	2
wares	1
28th	1
086	1
longing	9
saving	6
miraculous	4
1038832550073648999371671832800283988323	1
phone	26
3385833039117874757597706595357097964001	1
8210841597374696131432918085104469539734	1
bearers	2
wickedly	1
armada	2
houseman	1
alps	7
neath	2
foeman	1
proprieties	1
demodulator	1
thievery	1
cures	1
australian	1
harsh	14
smother	3
7821146668999684522704295458971092216365	1
093	1
unimpeachable	1
champaign	3
097	1
daren	1
freedom	77
femininity	4
bleat	1
cooking	6
mischief	10
8919868026561972364208475049626616077970	1
gnawings	2
shortcomings	1
canvassed	1
apostasy	1
display	24
gnat	2
0193234337873153939403115411184101414292	1
3656953207417053348678275482781541556196	1
kill	59
freeman	9
morn	2
beautifully	3
yart	1
madding	1
waive	1
disquiet	1
5476269452878051650172067478541788798227	1
parted	12
7723201429548033450006952569809352828877	1
accounts	10
bottled	1
trodden	2
superseded	1
colossal	2
gorgeously	1
navy	1
harpy	1
simple	38
obscurity	1
devoured	3
georgia	4
7812182401412993685904651465192091986053	1
misgivings	3
glades	4
northwards	2
percentage	1
outstript	1
shun	3
shrewdly	1
vine	4
negotiate	1
rogue	3
6046009152579788167038462590538325692052	1
roused	18
2234657869997229179241615604355766518338	1
package	2
marshall	1
moth	2
temporarily	3
traces	6
bammy	1
1791	1
exquisitely	2
clings	4
wayside	1
0835842613381142623855420315774246613108	1
meanly	1
syndic	1
important	52
moss	1
footstep	2
3938062140077792563376193730520256993190	1
sickliness	1
unscrupulous	3
menaces	2
correction	1
jesting	1
cloth	17
foemen	4
limitation	56
babbler	2
moorings	2
9514014617820181073410056546670823685431	1
9173966855795550531887153145523530703559	1
plunderers	1
alto	1
bowl	3
6937002783312365427450532283462669786446	1
7056906990457909981446491936545632594965	1
7941147110410688703738674378147161236141	1
undefiled	2
causing	7
sad	32
henceforward	3
imitation	9
compliment	1
supplicated	1
sah	4
2674257860878489818562886998085166571332	1
moderators	1
adds	1
unsimilar	1
disclosed	7
3856248920130010782462165136989511064611	1
sap	4
sat	84
alarms	2
arrant	2
freemen	3
replanting	1
cloudless	7
increase	22
hopped	1
differ	2
soever	1
favor	18
scuttled	2
investigation	3
arming	1
latter	33
5649336493231572353061093857968399021533	1
simply	27
customer	3
dixon	4
competently	1
equivalent	14
projects	13
baa	1
joan	1
3680363289139664155342066705623272936001	1
canoe	70
uncalled	1
asterisk	3
switches	2
0163846448324990378860690080727093276731	1
facile	1
supremely	1
flickering	8
completing	1
perpetual	8
plague	14
5500260804241605625335918562309553765668	1
kiss	3
userid	2
denver	1
6649560781253049175940158951469549652231	1
shoemaking	1
portend	2
bay	27
obstinately	1
916	1
7199689407223384740454259231663978160820	1
violated	1
mates	6
respec	2
3508048633935552384057355808637187635302	1
amanda	2
5741623973885201620238478425616351259716	1
humanly	1
disasters	2
documentation	1
disclaim	18
pitching	4
downright	2
1947935274564429846308888463853810686217	1
riegle	1
bbn	2
symptoms	4
6226541410672464872161743513173976971222	1
6495885748021949967226211858743610397749	1
transient	1
chemical	9
plans	35
drive	29
blighting	2
greatly	24
plank	3
5430642613425266847259491431423939884543	1
neophyte	1
geographical	2
abuse	7
hesitating	1
readiness	3
deaf	3
facing	8
foreleg	1
proven	2
3994333377311469119707378610419639864221	1
eyes	329
ministers	8
civic	2
sixth	6
greenland	1
coiled	2
8351567868893421148203905824224324264643	1
responsibility	9
humanists	1
peeping	1
national	63
earners	2
dear	138
kith	1
set	353
fastest	4
jobs	1
sex	30
column	3
medicine	9
portent	1
thirstiness	1
loitered	2
6818012783912005801431596441910546663236	1
sample	8
plummer	2
applicant	2
valais	1
admiration	20
transmissible	1
petition	8
rivet	1
digits	3
3664528978019175132987747952929099598069	1
earnest	16
validity	1
unbar	1
leaping	15
unwisdom	2
7792952824679543730226347249535946630023	1
performs	1
transferred	5
subscriptions	3
jum	1
bee	2
superhuman	4
roomy	1
stroll	1
nearest	18
felled	2
humorous	4
vehement	1
shouts	6
insolvency	1
baking	1
8105976032632517464050164546062667655290	1
differentiate	1
shipping	2
6530166683167802698738607554237482985482	1
3569271821496292272073250126955216172649	1
beginner	8
discharge	3
0434560669664568997469103739877128915933	1
0261564643215956091085109244516245442014	1
franch	1
searches	6
champions	2
instructive	3
zeal	10
0005031173439207321139080329363447972735	1
polygamy	1
pulls	1
scathless	2
massacring	1
susan	1
exploited	3
western	4
helps	2
vigorous	4
sho	6
party	83
little	530
however	156
circumscription	1
cursor	1
deer	19
5040188923192675575183540549560177329071	1
perpendicular	2
paynim	4
relates	7
checkers	1
maryland	22
forgive	11
part1	3
trembling	27
internet_	4
compel	4
exhibits	1
greetings	1
explained	47
3580	1
sparkled	4
harped	1
signs	21
appalling	12
aunt	24
captured	7
await	7
savagery	3
sip	1
views	23
mortification	3
conversion	7
sit	32
assurances	1
six	45
breathing	1
bound	98
clementine	1
8582740369655329362236090572479794734434	1
tyrant	6
1740917363606236546445847638464786952054	1
dinner	21
instigated	4
part5	1
kronos	1
fresh	35
humans	5
2259244561520365608268890193913957991844	1
amazement	11
corridor	3
8340194829327957506243996452725786244003	1
frustrated	1
advanced	36
sick	32
counsels	5
warrants	3
sailin	1
bailey	14
impositions	1
symmetrical	1
imagery	4
3256149527442435847530111503451037376882	1
modem	65
beside	54
heaping	2
join	32
tasks	6
reduce	4
deceiving	6
vait	1
reconstructing	2
hauling	1
grasped	16
satisfied	50
mists	4
6534009706581694636096660911110968789751	1
ordinary	22
fretful	2
2582503029410738914441818378779490613137	1
guttural	1
youngster	2
laius	39
beauties	3
lung	1
edging	1
7540420591146493088821905024885764575208	1
iled	1
9085660085431027963752474762653530315586	1
intercept	3
impulses	5
narrowed	2
differnce	1
hello	1
doctrine	1
testimonies	2
argive	4
breeding	5
2816339049676558789901487477972479202502	1
sizable	1
paragraph	198
7375227693199222635973520722998387368484	1
works	620
proportion	31
pentland	1
crystal	1
pursuit	36
focuses	1
plate	4
sequences	1
cycle	2
prosecutions	1
merope	2
4839404675057083479279483381332762379378	1
world	243
legends	5
composed	7
russell	1
strewed	2
decks	3
literatures	1
8758684250492690370934262028022399861803	1
livelier	1
bundle	18
table	34
5319	1
affordable	1
considerately	1
excerpts	2
2610175363482811968374933958257425412446	1
fluency	1
deceit	4
quarterman	1
4052552659776922077806644338105562443538	1
hide	26
linefeed	1
denunciations	1
stupendous	3
instruction	11
upreared	1
quills	2
powers	56
albertus	3
6392767687720145153302241853125308442727	1
3345637325956725335431617158653333984332	1
sny	1
paused	32
cursed	18
manliness	1
sob	3
expresses	1
precepts	2
alleviation	1
deli	1
insatiable	2
scanted	1
high	165
taber	3
son	178
split	6
2156036748286083786568030730626576334697	1
lust	5
coercive	1
outlived	1
directly	65
civilizations	1
depreciate	1
novice	1
administrators	1
usurper	1
incoming	2
reproving	1
9921817413596629043572900334295260595630	1
lever	1
rambles	6
antarctica	1
5958518393491382340884274312419099152870	1
lurk	1
2325270572005303988289499034259566232975	1
3898695076713447940748097845416328110406	1
sincerest	1
rewarded	5
confide	5
snatched	17
8420209894591555760083897989949964566262	1
behind	116
shades	7
6117920186989006730270823841032802134874	1
boo	1
4463005504481849916996622087746140216157	1
sheridan	2
bow	39
regularity	1
lamely	2
ripped	1
pursued	41
agonised	1
loses	3
hedges	1
politely	5
ills	18
prices	4
consumer	2
informs	1
delphi	12
zebra	1
1012124434092813146597602213604162230311	1
wuth	2
emulation	3
uicvm	1
bolts	3
relying	1
reseeding	1
sri	9
newsfeeds	1
apricot	1
101	9
hilarity	2
declined	12
105	2
earth	112
alack	5
howling	3
posse	1
overthrow	8
109	1
truthful	2
hillsborough	3
tempting	2
muffins	1
parsons	8
occurrences	6
newcomen	1
vary	1
5709467713182211320550504657970186933776	1
coherent	1
upper	14
county	11
paint	4
miserably	8
fighting	17
behalf	10
transgress	1
ponder	2
6729719811210531412589816510012074268814	1
112	1
scandal	5
116	1
reputable	3
reunited	1
friend	182
strengthen	1
accomplishments	1
drawn	33
faltering	1
societies	4
angelica	1
tartarus	2
8983450586004316822658631176606237201721	1
miserable	84
crawled	6
3191845064713669122576415213769896260940	1
dens	2
6730360561230710723922581504781379172731	1
interpreter	5
remaining	36
actors	1
123	2
requested	3
drave	2
crystallized	1
mugambi	73
127	1
lords	6
7823948087859905019475631089841241446728	1
autumn	6
2721913457752490577151277335842331400835	1
genevese	1
7488847646220303256377511125340600879369	1
lamplight	2
5547465540000517662402028259448288338118	1
apprehension	12
unusually	4
esquire	1
grounded	1
ports	3
vaud	1
130	2
sup	2
134	1
fancier	1
audio	1
mouldy	1
7850205000386300365262188006709266741048	1
servicing	1
welkin	9
knights	5
slipping	6
laying	18
storr	4
untrustworthy	1
enemies	40
threatened	19
tickled	2
4500430562136991850941034609601030543816	1
surprises	2
patrolling	1
vasn	1
145	1
discerning	1
stones	18
boasts	1
fourth	6
intervene	1
9784	2
dissent	1
inflamed	4
sincerely	13
declare	18
buy	24
wished	58
noised	1
paulvitch	64
gleaming	4
kindlier	1
quest	12
152	2
interviews	3
claiming	1
instantly	47
enticement	1
luggage	1
listservers	5
sneered	5
7587519836861526164087252594820126991923	1
2172071801756160102511117902216370347629	1
futilely	1
missile	2
seizures	1
1818	1
farmhouse	1
shrunken	1
9817530946230476048323993793910021425329	1
oracle	15
tubs	1
hastened	20
clergyman	1
dismal	6
dealers	1
colloquy	1
feathered	1
enhanced	1
enfranchisement	1
167	2
ocean	55
naval	3
expend	18
transformations	1
horny	1
records	13
inventors	2
5132574349645106814796947826197014832043	1
kid	17
quadra	1
throng	3
_ncsa	1
7187499753592127560844147378233032703301	1
vivid	12
174	1
5146417007698930562016350219269265316659	1
clapping	1
1832	2
178	1
emulous	1
missing	11
when12a	1
assent	5
mutability	1
successful	13
skulls	1
brutal	7
gradual	2
7155	1
mingled	11
slumped	1
idler	1
socialism	30
181	1
misbe	1
6147945247390128028426466892294556649586	1
jowl	1
discernment	1
saddened	3
bye	16
typed	3
functioning	1
7100739276238555338627255353883096067164	1
skirted	2
periodical	1
migration	1
jarred	1
subjecting	2
specially	4
1847	1
compromise	2
2797146647676032847133298550194568977275	1
expedite	1
sack	2
backed	4
scarped	1
potent	2
childish	4
freedmen	1
192	14
uudecode	2
unjustly	5
uuencoded	2
inexact	1
hist	1
positively	3
massachusetts	22
wrath	14
parnassus	1
roar	11
mailed	1
etext91	1
0814488732957847348490003019477888020460	1
feudalists	1
622154	1
joyfully	1
consummated	2
improvised	1
jeopardy	2
sergeants	1
stately	2
feebleminded	1
42bis	1
cornish	1
grecians	1
alleyway	1
9347243455794730048929825402680821621522	1
9933790487113395588485234240255002352200	1
deprives	2
galley	2
racing	10
unison	3
confidentiality	1
complacency	2
languid	2
rode	8
7687952422445639730183112914511513227578	1
overhear	2
charioteer	1
lean	9
feature	15
knaves	2
declaimed	1
assert	4
recompensing	1
tolled	1
brazen	3
sailorman	1
8156159561093181518370113510479017638359	1
infanticide	1
interdict	2
whittier	1
twisted	2
gymnastics	2
rugged	5
owenites	1
leaf	6
8510673615276261016026647772485083344719	1
wanderings	6
beastlike	1
tublat	2
fraction	3
8170258204412985376049982789902008349838	1
1887	18
kaleidascopic	1
sunlight	2
soothe	4
tenfold	5
etiquette	1
apprehensive	2
scowling	2
responses	1
greenwich	1
robs	3
miracles	1
kindling	2
forefingers	1
passage	23
utter	37
undivided	1
uniformity	1
leaders	7
8264951943804240543255345965248373785310	1
0789559165498130372929444623063712843579	1
8851075199334470112741787878845674656640	1
knocking	3
divert	1
plain	98
offal	1
crashed	4
begone	16
unintentional	1
suspending	1
refrained	2
dozed	3
tag	4
appertaining	2
basins	2
mileage	1
tak	2
dabble	1
8517840387733262470519450504198477420141	1
reprobated	1
centuries	7
indirect	21
sharpened	1
suave	1
goes	26
patients	2
wrapt	1
comparing	3
lawlessness	1
thonon	1
foulest	1
informant	1
barbaric	1
mouthful	1
enforce	1
sandwiched	1
destined	12
reposted	1
tbl	1
instances	9
disentangled	1
3917971064630990628548370283611848667221	1
sociology	2
musicians	1
flee	12
graham	2
geology	1
flea	15
aware	22
goodlooking	1
hair	46
cap	2
leer	1
marriage	61
floating	1
cat	44
topped	1
endowments	1
cabins	1
smooth	26
carried	67
motion	15
immunities	2
limited	117
february	5
plight	11
fault	21
hurrying	4
technically	1
blithe	1
accent	6
cools	2
hain	19
3790775026602011481493548222891666364078	1
palpitate	1
insatiate	1
file6	1
granite	1
file2	1
arguments	11
superstitions	2
stanley	1
6048845770177621831846155679784275410884	1
category	2
supernal	1
schooling	2
rival	1
